[
    {
        "title": "Monitor - Philips 223V5LHSB2/00, 22\" Full HD, 5ms, VESA, VGA, Conexi\u00f3n HDMI, Negro",
        "price": 78.99,
        "brand": "PHILIPS",
        "p_n": "1291685",
        "model": "223V5LHSB2/00",
        "size": 22.0,
        "image_quality": "HD",
        "resolution": "1366x768",
        "resolution_values": {
            "X": 1366.0,
            "Y": 768.0
        },
        "response_time": 5.0,
        "refresh_speed": null,
        "url": "https://www.mediamarkt.es/es/product/_monitor-philips-223v5lhsb2-00-22-full-hd-5ms-vesa-vga-conexi%C3%B3n-hdmi-negro-1291685.html",
        "e_commerce": "MediaMarkt"
    },
    {
        "title": "Monitor - Acer KA272BI, 27\", 1ms, Full HD 1920 x 1080, HDMI, FreeSync, Negro",
        "price": 139.0,
        "brand": "ACER",
        "p_n": "1469355",
        "model": "KA272BI",
        "size": 27.0,
        "image_quality": "FullHD",
        "resolution": "1920x1080",
        "resolution_values": {
            "X": 1920.0,
            "Y": 1080.0
        },
        "response_time": 1.0,
        "refresh_speed": null,
        "url": "https://www.mediamarkt.es/es/product/_monitor-acer-ka272bi-27-1ms-full-hd-1920-x-1080-hdmi-freesync-negro-1469355.html",
        "e_commerce": "MediaMarkt"
    },
    {
        "title": "Monitor - Lenovo L22E, 21.5\", Full HD, 6 ms, HDMI, Negro",
        "price": 89.99,
        "brand": "LENOVO",
        "p_n": "1446732",
        "model": "L22E",
        "size": 21.5,
        "image_quality": "FHD",
        "resolution": "1920x1080",
        "resolution_values": {
            "X": 1920.0,
            "Y": 1080.0
        },
        "response_time": null,
        "refresh_speed": null,
        "url": "https://www.mediamarkt.es/es/product/_monitor-lenovo-l22e-21-5-full-hd-6-ms-hdmi-negro-1446732.html",
        "e_commerce": "MediaMarkt"
    },
    {
        "title": "Monitor - Philips 273V7QDSB/00, 27\" Full HD IPS, 5 ms, Flicker Free, Low Blue Mode, HDMI, Negro",
        "price": 136.0,
        "brand": "PHILIPS",
        "p_n": "1466206",
        "model": "273V7QDSB/00",
        "size": 27.0,
        "image_quality": "FHD",
        "resolution": "1920x1080",
        "resolution_values": {
            "X": 1920.0,
            "Y": 1080.0
        },
        "response_time": 5.0,
        "refresh_speed": null,
        "url": "https://www.mediamarkt.es/es/product/_monitor-philips-273v7qdsb-00-27-full-hd-ips-5-ms-flicker-free-low-blue-mode-hdmi-negro-1466206.html",
        "e_commerce": "MediaMarkt"
    },
    {
        "title": "Monitor - Acer KA242Y, 23.8\", 1ms, Full HD 1920 x 1080, HDMI, FreeSync, 250 cd/m\u00b2, 75 Hz, IPS, Negro",
        "price": 99.0,
        "brand": "ACER",
        "p_n": "1469354",
        "model": "KA242Y",
        "size": 23.8,
        "image_quality": "FullHD",
        "resolution": "1920x1080",
        "resolution_values": {
            "X": 1920.0,
            "Y": 1080.0
        },
        "response_time": 1.0,
        "refresh_speed": "75",
        "url": "https://www.mediamarkt.es/es/product/_monitor-acer-ka242y-23-8-1ms-full-hd-1920-x-1080-hdmi-freesync-250-cd-m%C2%B2-75-hz-ips-negro-1469354.html",
        "e_commerce": "MediaMarkt"
    },
    {
        "title": "Monitor - Samsung S22R350FHU, 21.5 \", LED, Full HD 1920x1080, FreeSync, 250 cd/m\u00b2, 5 ms, 178\u00ba, HDMI, Plata",
        "price": 99.0,
        "brand": "SAMSUNG",
        "p_n": "1473717",
        "model": "S22R350FHU",
        "size": 21.5,
        "image_quality": "FullHD",
        "resolution": "1920x1080",
        "resolution_values": {
            "X": 1920.0,
            "Y": 1080.0
        },
        "response_time": 5.0,
        "refresh_speed": null,
        "url": "https://www.mediamarkt.es/es/product/_monitor-samsung-s22r350fhu-21-5-led-full-hd-1920x1080-freesync-250-cd-m%C2%B2-5-ms-178%C2%BA-hdmi-plata-1473717.html",
        "e_commerce": "MediaMarkt"
    },
    {
        "title": "Monitor - Acer R241YBWMIX, 23.8\", Full-HD IPS, 1 ms, VGA, HDMI, 1x HDMI-in, Blanco",
        "price": 129.0,
        "brand": "ACER",
        "p_n": "1475800",
        "model": "R241YBWMIX",
        "size": 23.8,
        "image_quality": "FHD",
        "resolution": "1920x1080",
        "resolution_values": {
            "X": 1920.0,
            "Y": 1080.0
        },
        "response_time": 1.0,
        "refresh_speed": null,
        "url": "https://www.mediamarkt.es/es/product/_monitor-acer-r241ybwmix-23-8-full-hd-ips-1-ms-vga-hdmi-1x-hdmi-in-blanco-1475800.html",
        "e_commerce": "MediaMarkt"
    },
    {
        "title": "Monitor - Philips LCD TFT 193V5LSB2/10",
        "price": 68.99,
        "brand": "PHILIPS",
        "p_n": "1203656",
        "model": "193V5LSB2/10",
        "size": 19.0,
        "image_quality": "HD",
        "resolution": "1366x768",
        "resolution_values": {
            "X": 1366.0,
            "Y": 768.0
        },
        "response_time": 5.0,
        "refresh_speed": null,
        "url": "https://www.mediamarkt.es/es/product/_monitor-philips-lcd-tft-193v5lsb2-10-1203656.html",
        "e_commerce": "MediaMarkt"
    },
    {
        "title": "Monitor - HP 22fw, FHD 21,5\", 1920x1080, 5ms, IPS, Microborde, AMD FreeSync\u2122, HDMI",
        "price": 119.0,
        "brand": "HP",
        "p_n": "1433939",
        "model": "22fw",
        "size": 21.5,
        "image_quality": "FHD",
        "resolution": "1920x1080",
        "resolution_values": {
            "X": 1920.0,
            "Y": 1080.0
        },
        "response_time": 5.0,
        "refresh_speed": null,
        "url": "https://www.mediamarkt.es/es/product/_monitor-hp-22fw-fhd-21-5-1920x1080-5ms-ips-microborde-amd-freesync%E2%84%A2-hdmi-1433939.html",
        "e_commerce": "MediaMarkt"
    },
    {
        "title": "Monitor - LG 22MK600M-B, 21.5\", IPS Full HD, Modo lectura, Radeon FreeSync, OnScreen Control",
        "price": 106.0,
        "brand": "LG ELECTRONICS",
        "p_n": "1441561",
        "model": "22MK600M-B",
        "size": 21.5,
        "image_quality": "FHD",
        "resolution": "1920x1080",
        "resolution_values": {
            "X": 1920.0,
            "Y": 1080.0
        },
        "response_time": 5.0,
        "refresh_speed": null,
        "url": "https://www.mediamarkt.es/es/product/_monitor-lg-22mk600m-b-21-5-ips-full-hd-modo-lectura-radeon-freesync-onscreen-control-1441561.html",
        "e_commerce": "MediaMarkt"
    },
    {
        "title": "Monitor gaming - HP OMEN 25, 24.5\" Full HD, 144Hz, LED, HDMI, USB, Negro (Jack Black)",
        "price": 206.0,
        "brand": "HP",
        "p_n": "1378011",
        "model": "OMEN 25",
        "size": 25.0,
        "image_quality": "FHD",
        "resolution": "1920x1080",
        "resolution_values": {
            "X": 1920.0,
            "Y": 1080.0
        },
        "response_time": 1.0,
        "refresh_speed": "144",
        "url": "https://www.mediamarkt.es/es/product/_monitor-gaming-hp-omen-25-24-5-full-hd-144hz-led-hdmi-usb-negro-jack-black-1378011.html",
        "e_commerce": "MediaMarkt"
    },
    {
        "title": "Monitor - LG 29WK600-W, 29\", Full HD Plus, IPS, HDR10, 5 ms, Blanco y plateado",
        "price": 239.0,
        "brand": "LG ELECTRONICS",
        "p_n": "1401127",
        "model": "29WK600-W",
        "size": 29.0,
        "image_quality": "FHD",
        "resolution": "1920x1080",
        "resolution_values": {
            "X": 1920.0,
            "Y": 1080.0
        },
        "response_time": 5.0,
        "refresh_speed": null,
        "url": "https://www.mediamarkt.es/es/product/_monitor-lg-29wk600-w-29-full-hd-plus-ips-hdr10-5-ms-blanco-y-plateado-1401127.html",
        "e_commerce": "MediaMarkt"
    },
    {
        "title": "Monitor - Acer EK240YABI, 23.8 \" Full-HD, 75 Hz, HDMI, 1 VGA, Negro",
        "price": 99.0,
        "brand": "ACER",
        "p_n": "1477913",
        "model": "EK240YABI",
        "size": 23.8,
        "image_quality": "FHD",
        "resolution": "1920x1080",
        "resolution_values": {
            "X": 1920.0,
            "Y": 1080.0
        },
        "response_time": null,
        "refresh_speed": "75",
        "url": "https://www.mediamarkt.es/es/product/_monitor-acer-ek240yabi-23-8-full-hd-75-hz-hdmi-1-vga-negro-1477913.html",
        "e_commerce": "MediaMarkt"
    },
    {
        "title": "Monitor - Acer EK220QABI, 21.5\" Full-HD, 5 ms, 75 Hz, Negro",
        "price": 79.9,
        "brand": "ACER",
        "p_n": "1477911",
        "model": "EK220QABI",
        "size": 21.5,
        "image_quality": "FHD",
        "resolution": "1920x1080",
        "resolution_values": {
            "X": 1920.0,
            "Y": 1080.0
        },
        "response_time": 5.0,
        "refresh_speed": "75",
        "url": "https://www.mediamarkt.es/es/product/_monitor-acer-ek220qabi-21-5-full-hd-5-ms-75-hz-negro-1477911.html",
        "e_commerce": "MediaMarkt"
    },
    {
        "title": "Monitor - LG 32MN500M-B, 31.5\" Full-HD, 5 ms, 75 Hz, 2 x HDMI, Radeon FreeSync, Negro",
        "price": 199.0,
        "brand": "LG ELECTRONICS",
        "p_n": "1477814",
        "model": "32MN500M-B",
        "size": 31.5,
        "image_quality": "FHD",
        "resolution": "1920x1080",
        "resolution_values": {
            "X": 1920.0,
            "Y": 1080.0
        },
        "response_time": 5.0,
        "refresh_speed": "75",
        "url": "https://www.mediamarkt.es/es/product/_monitor-lg-32mn500m-b-31-5-full-hd-5-ms-75-hz-2-x-hdmi-radeon-freesync-negro-1477814.html",
        "e_commerce": "MediaMarkt"
    },
    {
        "title": "Monitor - LG 27MK600M-W, 27\" Full HD IPS LED, 5 ms, Radeon FreeSync\u2122, Negro y plata",
        "price": 189.0,
        "brand": "LG ELECTRONICS",
        "p_n": "1467282",
        "model": "27MK600M-W",
        "size": 27.0,
        "image_quality": "HD",
        "resolution": "1366x768",
        "resolution_values": {
            "X": 1366.0,
            "Y": 768.0
        },
        "response_time": 5.0,
        "refresh_speed": null,
        "url": "https://www.mediamarkt.es/es/product/_monitor-lg-27mk600m-w-27-full-hd-ips-led-5-ms-radeon-freesync%E2%84%A2-negro-y-plata-1467282.html",
        "e_commerce": "MediaMarkt"
    },
    {
        "title": "Monitor - Samsung S24R350FHU, 23.8 \", LED, Full HD 1920x1080, FreeSync, 250 cd/m\u00b2, 5 ms, 178\u00ba, HDMI, Plata",
        "price": 129.0,
        "brand": "SAMSUNG",
        "p_n": "1473718",
        "model": "S24R350FHU",
        "size": 23.8,
        "image_quality": "FullHD",
        "resolution": "1920x1080",
        "resolution_values": {
            "X": 1920.0,
            "Y": 1080.0
        },
        "response_time": 5.0,
        "refresh_speed": null,
        "url": "https://www.mediamarkt.es/es/product/_monitor-samsung-s24r350fhu-23-8-led-full-hd-1920x1080-freesync-250-cd-m%C2%B2-5-ms-178%C2%BA-hdmi-plata-1473718.html",
        "e_commerce": "MediaMarkt"
    },
    {
        "title": "Monitor - Samsung S24F352H, 23.5\" Full HD, PLS, Negro",
        "price": 109.0,
        "brand": "SAMSUNG",
        "p_n": "1326443",
        "model": "S24F352H",
        "size": 23.5,
        "image_quality": "FHD",
        "resolution": "1920x1080",
        "resolution_values": {
            "X": 1920.0,
            "Y": 1080.0
        },
        "response_time": 4.0,
        "refresh_speed": null,
        "url": "https://www.mediamarkt.es/es/product/_monitor-samsung-s24f352h-23-5-full-hd-pls-negro-1326443.html",
        "e_commerce": "MediaMarkt"
    },
    {
        "title": "Monitor gaming - LG 27MP59G, 27\", Full HD, IPS, Negro",
        "price": 179.0,
        "brand": "LG ELECTRONICS",
        "p_n": "1365241",
        "model": "g - LG 27MP59G",
        "size": 27.0,
        "image_quality": "HD",
        "resolution": "1366x768",
        "resolution_values": {
            "X": 1366.0,
            "Y": 768.0
        },
        "response_time": 1.0,
        "refresh_speed": null,
        "url": "https://www.mediamarkt.es/es/product/_monitor-gaming-lg-27mp59g-27-full-hd-ips-negro-1365241.html",
        "e_commerce": "MediaMarkt"
    },
    {
        "title": "Monitor gaming - AOC C24G1 24\" Full HD, Curvo, 1 ms, 144 Hz, LED, Flicker Free, FreeSync, Negro/Rojo",
        "price": 199.0,
        "brand": "AOC",
        "p_n": "1469901",
        "model": "C24G1",
        "size": 24.0,
        "image_quality": "FHD",
        "resolution": "1920x1080",
        "resolution_values": {
            "X": 1920.0,
            "Y": 1080.0
        },
        "response_time": 1.0,
        "refresh_speed": "44",
        "url": "https://www.mediamarkt.es/es/product/_monitor-gaming-aoc-c24g1-24-full-hd-curvo-1-ms-144-hz-led-flicker-free-freesync-negro-rojo-1469901.html",
        "e_commerce": "MediaMarkt"
    },
    {
        "title": "Monitor gaming - LG 25UM58-P , 25\", 2560x1080, 5ms, IPS, 21:9, Negro",
        "price": 163.0,
        "brand": "LG ELECTRONICS",
        "p_n": "1321019",
        "model": "g - LG 25UM58-P ",
        "size": 25.0,
        "image_quality": "FHD",
        "resolution": "1920x1080",
        "resolution_values": {
            "X": 1920.0,
            "Y": 1080.0
        },
        "response_time": 5.0,
        "refresh_speed": null,
        "url": "https://www.mediamarkt.es/es/product/_monitor-gaming-lg-25um58-p-25-2560x1080-5ms-ips-21-9-negro-1321019.html",
        "e_commerce": "MediaMarkt"
    },
    {
        "title": "Monitor - AOC E2270SWN, 21.5\", Full HD, LED, 1920 x 1080, Negro",
        "price": 76.99,
        "brand": "AOC",
        "p_n": "1249080",
        "model": "E2270SWN",
        "size": 21.5,
        "image_quality": "FHD",
        "resolution": "1920x1080",
        "resolution_values": {
            "X": 1920.0,
            "Y": 1080.0
        },
        "response_time": 5.0,
        "refresh_speed": null,
        "url": "https://www.mediamarkt.es/es/product/_monitor-aoc-e2270swn-21-5-full-hd-led-1920-x-1080-negro-1249080.html",
        "e_commerce": "MediaMarkt"
    },
    {
        "title": "Monitor gaming - Asus VG278QF, 27\" Full-HD, TN LED, 0.5 ms, 165 Hz, FreeSync/Adaptive Sync, HDMI, Negro",
        "price": 240.0,
        "brand": "ASUS",
        "p_n": "1479335",
        "model": "VG278QF",
        "size": 27.0,
        "image_quality": "FHD",
        "resolution": "1920x1080",
        "resolution_values": {
            "X": 1920.0,
            "Y": 1080.0
        },
        "response_time": 0.5,
        "refresh_speed": "65",
        "url": "https://www.mediamarkt.es/es/product/_monitor-gaming-asus-vg278qf-27-full-hd-tn-led-0-5-ms-165-hz-freesync-adaptive-sync-hdmi-negro-1479335.html",
        "e_commerce": "MediaMarkt"
    },
    {
        "title": "Monitor - Philips E-Line 248E9QHSB, 24\" Full HD, Curvo, HDMI, VGA, LCD, Negro",
        "price": 138.0,
        "brand": "PHILIPS",
        "p_n": "1467206",
        "model": "248E9QHSB",
        "size": 23.6,
        "image_quality": "FHD",
        "resolution": "1920x1080",
        "resolution_values": {
            "X": 1920.0,
            "Y": 1080.0
        },
        "response_time": 4.0,
        "refresh_speed": null,
        "url": "https://www.mediamarkt.es/es/product/_monitor-philips-e-line-248e9qhsb-24-full-hd-curvo-hdmi-vga-lcd-negro-1467206.html",
        "e_commerce": "MediaMarkt"
    },
    {
        "title": "Monitor gaming - Asus VP228QG, 21,5\", TN, FullHD, 1ms, Eye Care, antiparpadeo, Negro",
        "price": 120.0,
        "brand": "ASUS",
        "p_n": "1434109",
        "model": "VP228QG",
        "size": 22.0,
        "image_quality": "FHD",
        "resolution": "1920x1080",
        "resolution_values": {
            "X": 1920.0,
            "Y": 1080.0
        },
        "response_time": 1.0,
        "refresh_speed": null,
        "url": "https://www.mediamarkt.es/es/product/_monitor-gaming-asus-vp228qg-21-5-tn-fullhd-1ms-eye-care-antiparpadeo-negro-1434109.html",
        "e_commerce": "MediaMarkt"
    },
    {
        "title": "Monitor LED - AOC Value E970SWN HD Panor\u00e1mico y 5ms",
        "price": 68.99,
        "brand": "AOC",
        "p_n": "1229345",
        "model": "E970SWN",
        "size": 18.5,
        "image_quality": "HD",
        "resolution": "1366x768",
        "resolution_values": {
            "X": 1366.0,
            "Y": 768.0
        },
        "response_time": 5.0,
        "refresh_speed": null,
        "url": "https://www.mediamarkt.es/es/product/_monitor-led-aoc-value-e970swn-hd-panor%C3%A1mico-y-5ms-1229345.html",
        "e_commerce": "MediaMarkt"
    },
    {
        "title": "Monitor gaming - Samsung LS27E332HZO, 27\" Full HD, 1 ms, 75 Hz, HDMI, Negro",
        "price": 142.0,
        "brand": "SAMSUNG",
        "p_n": "1473819",
        "model": "LS27E332HZO",
        "size": 27.0,
        "image_quality": "FHD",
        "resolution": "1920x1080",
        "resolution_values": {
            "X": 1920.0,
            "Y": 1080.0
        },
        "response_time": 1.0,
        "refresh_speed": "332",
        "url": "https://www.mediamarkt.es/es/product/_monitor-gaming-samsung-ls27e332hzo-27-full-hd-1-ms-75-hz-hdmi-negro-1473819.html",
        "e_commerce": "MediaMarkt"
    },
    {
        "title": "Monitor gaming - Acer ED320QRPBIIPX, 32\" FullHD, Curvo, 5 ms, 165 Hz, LED sin parpadeo, Negro",
        "price": 219.0,
        "brand": "ACER",
        "p_n": "1475806",
        "model": "ED320QRPBIIPX",
        "size": 32.0,
        "image_quality": "FHD",
        "resolution": "1920x1080",
        "resolution_values": {
            "X": 1920.0,
            "Y": 1080.0
        },
        "response_time": 5.0,
        "refresh_speed": "65",
        "url": "https://www.mediamarkt.es/es/product/_monitor-gaming-acer-ed320qrpbiipx-32-fullhd-curvo-5-ms-165-hz-led-sin-parpadeo-negro-1475806.html",
        "e_commerce": "MediaMarkt"
    },
    {
        "title": "Monitor - AOC 22B1H, 21.5\" Full HD, 5 ms, HDMI, Negro",
        "price": 84.99,
        "brand": "AOC",
        "p_n": "1470059",
        "model": "22B1H",
        "size": 21.5,
        "image_quality": "FHD",
        "resolution": "1920x1080",
        "resolution_values": {
            "X": 1920.0,
            "Y": 1080.0
        },
        "response_time": 5.0,
        "refresh_speed": null,
        "url": "https://www.mediamarkt.es/es/product/_monitor-aoc-22b1h-21-5-full-hd-5-ms-hdmi-negro-1470059.html",
        "e_commerce": "MediaMarkt"
    },
    {
        "title": "Monitor gaming - HP 24x, 23.8\", Full HD, 1 ms, 144 Hz, Negro",
        "price": 219.0,
        "brand": "HP",
        "p_n": "1467147",
        "model": "24x",
        "size": 23.8,
        "image_quality": "HD",
        "resolution": "1366x768",
        "resolution_values": {
            "X": 1366.0,
            "Y": 768.0
        },
        "response_time": 1.0,
        "refresh_speed": "44",
        "url": "https://www.mediamarkt.es/es/product/_monitor-gaming-hp-24x-23-8-full-hd-1-ms-144-hz-negro-1467147.html",
        "e_commerce": "MediaMarkt"
    },
    {
        "title": "Monitor - Philips 276E8VJSB, 27\", 4K, IPS, 16:9, WLED, HDMI, sRGB, 350 cd/m\u00b2, Antirreflectante, Salida audio",
        "price": 279.0,
        "brand": "PHILIPS",
        "p_n": "1446212",
        "model": "276E8VJSB",
        "size": 27.0,
        "image_quality": "4K",
        "resolution": "4096x2160",
        "resolution_values": {
            "X": 4096.0,
            "Y": 2160.0
        },
        "response_time": 5.0,
        "refresh_speed": null,
        "url": "https://www.mediamarkt.es/es/product/_monitor-philips-276e8vjsb-27-4k-ips-16-9-wled-hdmi-srgb-350-cd-m%C2%B2-antirreflectante-salida-audio-1446212.html",
        "e_commerce": "MediaMarkt"
    },
    {
        "title": "Monitor - Asus VS197DE, 18.5\", HD, D-Sub, Negro",
        "price": 68.99,
        "brand": "ASUS",
        "p_n": "1188567",
        "model": "VS197DE",
        "size": 18.5,
        "image_quality": "HD",
        "resolution": "1366x768",
        "resolution_values": {
            "X": 1366.0,
            "Y": 768.0
        },
        "response_time": 5.0,
        "refresh_speed": null,
        "url": "https://www.mediamarkt.es/es/product/_monitor-asus-vs197de-18-5-hd-d-sub-negro-1188567.html",
        "e_commerce": "MediaMarkt"
    },
    {
        "title": "Monitor gaming - MSI OPTIX MAG274R, 27 \" Full-HD, 1 ms, 144 Hz, FreeSync Premium, USB, HDMI, Negro",
        "price": 349.0,
        "brand": "MSI",
        "p_n": "1481885",
        "model": "OPTIX MAG274R",
        "size": 27.0,
        "image_quality": "FHD",
        "resolution": "1920x1080",
        "resolution_values": {
            "X": 1920.0,
            "Y": 1080.0
        },
        "response_time": 1.0,
        "refresh_speed": "44",
        "url": "https://www.mediamarkt.es/es/product/_monitor-gaming-msi-optix-mag274r-27-full-hd-1-ms-144-hz-freesync-premium-usb-hdmi-negro-1481885.html",
        "e_commerce": "MediaMarkt"
    },
    {
        "title": "Monitor gaming - LG 29UM69G-B, 29\", IPS, WFHD, USB-C Altavoces",
        "price": 237.0,
        "brand": "LG ELECTRONICS",
        "p_n": "1365243",
        "model": "g - LG 29UM69G-B",
        "size": 29.0,
        "image_quality": "FHD",
        "resolution": "1920x1080",
        "resolution_values": {
            "X": 1920.0,
            "Y": 1080.0
        },
        "response_time": 1.0,
        "refresh_speed": null,
        "url": "https://www.mediamarkt.es/es/product/_monitor-gaming-lg-29um69g-b-29-ips-wfhd-usb-c-altavoces-1365243.html",
        "e_commerce": "MediaMarkt"
    },
    {
        "title": "Monitor - HP 20kd, 19.5 pulgadas, 1440 x 900 a 60Hz, LED, VGA, DVI",
        "price": 88.99,
        "brand": "HP",
        "p_n": "1332126",
        "model": "20kd",
        "size": 19.5,
        "image_quality": "WXGA",
        "resolution": "1280x800",
        "resolution_values": {
            "X": 1280.0,
            "Y": 800.0
        },
        "response_time": 8.0,
        "refresh_speed": "60",
        "url": "https://www.mediamarkt.es/es/product/_monitor-hp-20kd-19-5-pulgadas-1440-x-900-a-60hz-led-vga-dvi-1332126.html",
        "e_commerce": "MediaMarkt"
    },
    {
        "title": "Monitor gaming - AOC 27G2U/BK, 27\" Full HD IPS, 1ms, 144 Hz, AMD FreeSync, Negro",
        "price": 249.0,
        "brand": "AOC",
        "p_n": "1470070",
        "model": "27G2U/BK",
        "size": 27.0,
        "image_quality": "FHD",
        "resolution": "1920x1080",
        "resolution_values": {
            "X": 1920.0,
            "Y": 1080.0
        },
        "response_time": 4.0,
        "refresh_speed": "44",
        "url": "https://www.mediamarkt.es/es/product/_monitor-gaming-aoc-27g2u-bk-27-full-hd-ips-1ms-144-hz-amd-freesync-negro-1470070.html",
        "e_commerce": "MediaMarkt"
    },
    {
        "title": "Monitor gaming - Samsung LC24RG50 24'', Curvo, Full HD, 4 ms, 144 Hz, Negro",
        "price": 179.0,
        "brand": "SAMSUNG",
        "p_n": "1452823",
        "model": "LC24RG",
        "size": 23.5,
        "image_quality": "FHD",
        "resolution": "1920x1080",
        "resolution_values": {
            "X": 1920.0,
            "Y": 1080.0
        },
        "response_time": 4.0,
        "refresh_speed": "44",
        "url": "https://www.mediamarkt.es/es/product/_monitor-gaming-samsung-lc24rg50-24-curvo-full-hd-4-ms-144-hz-negro-1452823.html",
        "e_commerce": "MediaMarkt"
    },
    {
        "title": "Monitor gaming - LG UltraGear 27GN750-B, 27\" Full-HD, 1 ms, 240 Hz, FreeSync, DisplayPort, HDMI, USB, Negro",
        "price": 379.0,
        "brand": "LG ELECTRONICS",
        "p_n": "1481721",
        "model": "UltraGear 27GN750-B",
        "size": 27.0,
        "image_quality": "FHD",
        "resolution": "1920x1080",
        "resolution_values": {
            "X": 1920.0,
            "Y": 1080.0
        },
        "response_time": 1.0,
        "refresh_speed": "40",
        "url": "https://www.mediamarkt.es/es/product/_monitor-gaming-lg-ultragear-27gn750-b-27-full-hd-1-ms-240-hz-freesync-displayport-hdmi-usb-negro-1481721.html",
        "e_commerce": "MediaMarkt"
    },
    {
        "title": "Monitor gaming - AOC C32G1, 31.5\", Curvo, 1 ms, Full HD, 144 Hz, HDMI, Display Port, FreeSync, Negro",
        "price": 269.0,
        "brand": "AOC",
        "p_n": "1470065",
        "model": "C32G1",
        "size": 31.5,
        "image_quality": "FHD",
        "resolution": "1920x1080",
        "resolution_values": {
            "X": 1920.0,
            "Y": 1080.0
        },
        "response_time": 1.0,
        "refresh_speed": "44",
        "url": "https://www.mediamarkt.es/es/product/_monitor-gaming-aoc-c32g1-31-5-curvo-1-ms-full-hd-144-hz-hdmi-display-port-freesync-negro-1470065.html",
        "e_commerce": "MediaMarkt"
    },
    {
        "title": "Monitor - AOC 22B1HS, 21.5\" Full HD, IPS, 5 ms, Flicker Free, Low Blue Light, HDMI, Negro",
        "price": 99.99,
        "brand": "AOC",
        "p_n": "1470060",
        "model": "22B1H",
        "size": 21.5,
        "image_quality": "FHD",
        "resolution": "1920x1080",
        "resolution_values": {
            "X": 1920.0,
            "Y": 1080.0
        },
        "response_time": 5.0,
        "refresh_speed": null,
        "url": "https://www.mediamarkt.es/es/product/_monitor-aoc-22b1hs-21-5-full-hd-ips-5-ms-flicker-free-low-blue-light-hdmi-negro-1470060.html",
        "e_commerce": "MediaMarkt"
    },
    {
        "title": "Monitor - AOC 27V2Q 27\", Full HD, LED, IPS, FreeSync, Negro",
        "price": 169.0,
        "brand": "AOC",
        "p_n": "1471144",
        "model": "27V2Q",
        "size": 27.0,
        "image_quality": "FHD",
        "resolution": "1920x1080",
        "resolution_values": {
            "X": 1920.0,
            "Y": 1080.0
        },
        "response_time": 5.0,
        "refresh_speed": null,
        "url": "https://www.mediamarkt.es/es/product/_monitor-aoc-27v2q-27-full-hd-led-ips-freesync-negro-1471144.html",
        "e_commerce": "MediaMarkt"
    },
    {
        "title": "Monitor - LG 27GL850-B LED 27\", USB, 2560 x 1440 Pixeles WQHD Plana Negro, Rojo",
        "price": 499.0,
        "brand": "LG ELECTRONICS",
        "p_n": "1468202",
        "model": "27GL850",
        "size": 27.0,
        "image_quality": "HD",
        "resolution": "1366x768",
        "resolution_values": {
            "X": 1366.0,
            "Y": 768.0
        },
        "response_time": 1.0,
        "refresh_speed": null,
        "url": "https://www.mediamarkt.es/es/product/_monitor-lg-27gl850-b-led-27-usb-2560-x-1440-pixeles-wqhd-plana-negro-rojo-1468202.html",
        "e_commerce": "MediaMarkt"
    },
    {
        "title": "Monitor Gaming - Asus VP278QG, 27\", Full HD, 1ms, 75 Hz, Negro",
        "price": 179.0,
        "brand": "ASUS",
        "p_n": "1394407",
        "model": "VP278QG",
        "size": 27.0,
        "image_quality": "FHD",
        "resolution": "1920x1080",
        "resolution_values": {
            "X": 1920.0,
            "Y": 1080.0
        },
        "response_time": 1.0,
        "refresh_speed": "75",
        "url": "https://www.mediamarkt.es/es/product/_monitor-gaming-asus-vp278qg-27-full-hd-1ms-75-hz-negro-1394407.html",
        "e_commerce": "MediaMarkt"
    },
    {
        "title": "Monitor - Lenovo G24-10, 59.94 cm, 23.6\", 1920 x 1080, FHD, HDMI, DisplayPort, 1 ms, G-SYNC Compatible, Negro",
        "price": 170.0,
        "brand": "LENOVO",
        "p_n": "1473980",
        "model": "G24-10",
        "size": 23.6,
        "image_quality": "FHD",
        "resolution": "1920x1080",
        "resolution_values": {
            "X": 1920.0,
            "Y": 1080.0
        },
        "response_time": 1.0,
        "refresh_speed": null,
        "url": "https://www.mediamarkt.es/es/product/_monitor-lenovo-g24-10-59-94-cm-23-6-1920-x-1080-fhd-hdmi-displayport-1-ms-g-sync-compatible-negro-1473980.html",
        "e_commerce": "MediaMarkt"
    },
    {
        "title": "Monitor - Samsung CRG9 C49RG90, Gaming, 49\", Curva, QLED, Negro",
        "price": 960.0,
        "brand": "SAMSUNG",
        "p_n": "1453989",
        "model": "CRG9 C49RG90",
        "size": 49.0,
        "image_quality": "FHD",
        "resolution": "1920x1080",
        "resolution_values": {
            "X": 1920.0,
            "Y": 1080.0
        },
        "response_time": 4.0,
        "refresh_speed": null,
        "url": "https://www.mediamarkt.es/es/product/_monitor-samsung-crg9-c49rg90-gaming-49-curva-qled-negro-1453989.html",
        "e_commerce": "MediaMarkt"
    },
    {
        "title": "Monitor gaming - Lenovo D27-20, 27\" Full-HD, 4 ms, 75 Hz, 1xHDMI, 1xVGA, 1xAudio, FreeSync, Negro",
        "price": 159.0,
        "brand": "LENOVO",
        "p_n": "1481476",
        "model": "D27-20",
        "size": 27.0,
        "image_quality": "FHD",
        "resolution": "1920x1080",
        "resolution_values": {
            "X": 1920.0,
            "Y": 1080.0
        },
        "response_time": 4.0,
        "refresh_speed": "75",
        "url": "https://www.mediamarkt.es/es/product/_monitor-gaming-lenovo-d27-20-27-full-hd-4-ms-75-hz-1xhdmi-1xvga-1xaudio-freesync-negro-1481476.html",
        "e_commerce": "MediaMarkt"
    },
    {
        "title": "Monitor gaming - Samsung C27RG50FQU Serie CRG50, 27\", Full HD, 4 ms, HDMI",
        "price": 319.0,
        "brand": "SAMSUNG",
        "p_n": "1461699",
        "model": "C27RG50FQU",
        "size": 27.0,
        "image_quality": "HD",
        "resolution": "1366x768",
        "resolution_values": {
            "X": 1366.0,
            "Y": 768.0
        },
        "response_time": 4.0,
        "refresh_speed": null,
        "url": "https://www.mediamarkt.es/es/product/_monitor-gaming-samsung-c27rg50fqu-serie-crg50-27-full-hd-4-ms-hdmi-1461699.html",
        "e_commerce": "MediaMarkt"
    },
    {
        "title": "Monitor - AOC 22V2Q, Full HD,21.5\", Plana, Negro",
        "price": 115.0,
        "brand": "AOC",
        "p_n": "1446087",
        "model": "22V2Q",
        "size": 21.5,
        "image_quality": "FHD",
        "resolution": "1920x1080",
        "resolution_values": {
            "X": 1920.0,
            "Y": 1080.0
        },
        "response_time": 5.0,
        "refresh_speed": null,
        "url": "https://www.mediamarkt.es/es/product/_monitor-aoc-22v2q-full-hd-21-5-plana-negro-1446087.html",
        "e_commerce": "MediaMarkt"
    },
    {
        "title": "Monitor - Acer R0 R270, 27\", LED IPS, Full-HD, FreeSync, 1 ms, 75 HZ, HDMI, VGA, Plata",
        "price": 159.0,
        "brand": "ACER",
        "p_n": "1475802",
        "model": "R0 R270",
        "size": 27.0,
        "image_quality": "FHD",
        "resolution": "1920x1080",
        "resolution_values": {
            "X": 1920.0,
            "Y": 1080.0
        },
        "response_time": 1.0,
        "refresh_speed": "75",
        "url": "https://www.mediamarkt.es/es/product/_monitor-acer-r0-r270-27-led-ips-full-hd-freesync-1-ms-75-hz-hdmi-vga-plata-1475802.html",
        "e_commerce": "MediaMarkt"
    },
    {
        "title": "Monitor - AOC E2270SWHN, Full HD, 21.5 pulgadas",
        "price": 85.99,
        "brand": "AOC",
        "p_n": "1316799",
        "model": "E2270SWHN",
        "size": 21.5,
        "image_quality": "FHD",
        "resolution": "1920x1080",
        "resolution_values": {
            "X": 1920.0,
            "Y": 1080.0
        },
        "response_time": 5.0,
        "refresh_speed": null,
        "url": "https://www.mediamarkt.es/es/product/_monitor-aoc-e2270swhn-full-hd-21-5-pulgadas-1316799.html",
        "e_commerce": "MediaMarkt"
    },
    {
        "title": "Monitor gaming - Lenovo G27c-10, 7\", VA Full HD 1920x1080, 6 ms, Curvo, 165 Hz, FreeSync, HDMI, DisplayPort",
        "price": 249.0,
        "brand": "LENOVO",
        "p_n": "1473984",
        "model": "G27c-10",
        "size": 27.0,
        "image_quality": "FullHD",
        "resolution": "1920x1080",
        "resolution_values": {
            "X": 1920.0,
            "Y": 1080.0
        },
        "response_time": 6.0,
        "refresh_speed": "65",
        "url": "https://www.mediamarkt.es/es/product/_monitor-gaming-lenovo-g27c-10-7-va-full-hd-1920x1080-6-ms-curvo-165-hz-freesync-hdmi-displayport-1473984.html",
        "e_commerce": "MediaMarkt"
    },
    {
        "title": "Monitor gaming - Acer Nitro QG271bii, 27 \" Full-HD, 1 ms, 75 Hz, Negro",
        "price": 179.0,
        "brand": "ACER",
        "p_n": "1475809",
        "model": "Nitro QG271bii",
        "size": 27.0,
        "image_quality": "FHD",
        "resolution": "1920x1080",
        "resolution_values": {
            "X": 1920.0,
            "Y": 1080.0
        },
        "response_time": 1.0,
        "refresh_speed": "75",
        "url": "https://www.mediamarkt.es/es/product/_monitor-gaming-acer-nitro-qg271bii-27-full-hd-1-ms-75-hz-negro-1475809.html",
        "e_commerce": "MediaMarkt"
    },
    {
        "title": "Monitor gaming - Zowie XL2546, 24.5\" Full HD, 1920x1080, 1 ms, 240 Hz, TN, LED",
        "price": 479.0,
        "brand": "ZOWIE",
        "p_n": "1373130",
        "model": "XL2546",
        "size": 24.0,
        "image_quality": "FullHD",
        "resolution": "1920x1080",
        "resolution_values": {
            "X": 1920.0,
            "Y": 1080.0
        },
        "response_time": 1.0,
        "refresh_speed": "40",
        "url": "https://www.mediamarkt.es/es/product/_monitor-gaming-zowie-xl2546-24-5-full-hd-1920x1080-1-ms-240-hz-tn-led-1373130.html",
        "e_commerce": "MediaMarkt"
    },
    {
        "title": "Monitor - LG 34WN650, 34\" WQHD 2560x1080, 5ms, 75Hz, FreeSync, IPS, DisplayPort, 2x HDMI, Altavoces, Blanco",
        "price": 350.0,
        "brand": "LG ELECTRONICS",
        "p_n": "1477809",
        "model": "34WN650",
        "size": 34.0,
        "image_quality": "WQHD",
        "resolution": "2560x1080",
        "resolution_values": {
            "X": 2560.0,
            "Y": 1080.0
        },
        "response_time": 5.0,
        "refresh_speed": "75",
        "url": "https://www.mediamarkt.es/es/product/_monitor-lg-34wn650-34-wqhd-2560x1080-5ms-75hz-freesync-ips-displayport-2x-hdmi-altavoces-blanco-1477809.html",
        "e_commerce": "MediaMarkt"
    },
    {
        "title": "Monitor - LG 34WK95U-W, 34'', 4K UHD, 600 cd/m\u00b2, 10 W",
        "price": 1083.0,
        "brand": "LG ELECTRONICS",
        "p_n": "1434078",
        "model": "34WK95U-W",
        "size": 34.0,
        "image_quality": "FHD",
        "resolution": "1920x1080",
        "resolution_values": {
            "X": 1920.0,
            "Y": 1080.0
        },
        "response_time": 5.0,
        "refresh_speed": null,
        "url": "https://www.mediamarkt.es/es/product/_monitor-lg-34wk95u-w-34-4k-uhd-600-cd-m%C2%B2-10-w-1434078.html",
        "e_commerce": "MediaMarkt"
    },
    {
        "title": "Monitor - Lenovo Q24i, 23.8\" IPS FullHD, AMD FreeSync, 4 ms, HDMI, Negro y plata",
        "price": 159.0,
        "brand": "LENOVO",
        "p_n": "1468989",
        "model": "Q24i",
        "size": 23.8,
        "image_quality": "HD",
        "resolution": "1366x768",
        "resolution_values": {
            "X": 1366.0,
            "Y": 768.0
        },
        "response_time": 4.0,
        "refresh_speed": null,
        "url": "https://www.mediamarkt.es/es/product/_monitor-lenovo-q24i-23-8-ips-fullhd-amd-freesync-4-ms-hdmi-negro-y-plata-1468989.html",
        "e_commerce": "MediaMarkt"
    },
    {
        "title": "Monitor - : LG 27GL650F-B LED 27\", 1920 x 1080 Pixeles Full HD, Plana Mate Negro",
        "price": 268.0,
        "brand": "LG ELECTRONICS",
        "p_n": "1468201",
        "model": "27GL650F-B",
        "size": 27.0,
        "image_quality": "FHD",
        "resolution": "1920x1080",
        "resolution_values": {
            "X": 1920.0,
            "Y": 1080.0
        },
        "response_time": 1.0,
        "refresh_speed": null,
        "url": "https://www.mediamarkt.es/es/product/_monitor-lg-27gl650f-b-led-27-1920-x-1080-pixeles-full-hd-plana-mate-negro-1468201.html",
        "e_commerce": "MediaMarkt"
    },
    {
        "title": "Monitor - Acer R240Y, 23.8\", Full-HD, LED IPS, FreeSync, 1 ms, 75 HZ, VGA, HDMI, Plata",
        "price": 119.0,
        "brand": "ACER",
        "p_n": "1475801",
        "model": "R240Y",
        "size": 23.8,
        "image_quality": "FHD",
        "resolution": "1920x1080",
        "resolution_values": {
            "X": 1920.0,
            "Y": 1080.0
        },
        "response_time": 1.0,
        "refresh_speed": "75",
        "url": "https://www.mediamarkt.es/es/product/_monitor-acer-r240y-23-8-full-hd-led-ips-freesync-1-ms-75-hz-vga-hdmi-plata-1475801.html",
        "e_commerce": "MediaMarkt"
    },
    {
        "title": "Monitor - AOC Q3279VWF, 31.5\" QHD, 2560x1440, LCD, MVA, 5ms, DVI, HDMI, Negro y plata",
        "price": 239.0,
        "brand": "AOC",
        "p_n": "1391777",
        "model": "Q3279VWF",
        "size": 32.0,
        "image_quality": "WQHD",
        "resolution": "2560x1440",
        "resolution_values": {
            "X": 2560.0,
            "Y": 1440.0
        },
        "response_time": 5.0,
        "refresh_speed": null,
        "url": "https://www.mediamarkt.es/es/product/_monitor-aoc-q3279vwf-31-5-qhd-2560x1440-lcd-mva-5ms-dvi-hdmi-negro-y-plata-1391777.html",
        "e_commerce": "MediaMarkt"
    },
    {
        "title": "Monitor - AOC M2470SWH, 23.6\", Full HD 1920x1080, 250 cd/m\u00b2, Display WLED, MVA, Negro",
        "price": 95.99,
        "brand": "AOC",
        "p_n": "1359177",
        "model": "M2470SWH",
        "size": 23.6,
        "image_quality": "FullHD",
        "resolution": "1920x1080",
        "resolution_values": {
            "X": 1920.0,
            "Y": 1080.0
        },
        "response_time": 5.0,
        "refresh_speed": null,
        "url": "https://www.mediamarkt.es/es/product/_monitor-aoc-m2470swh-23-6-full-hd-1920x1080-250-cd-m%C2%B2-display-wled-mva-negro-1359177.html",
        "e_commerce": "MediaMarkt"
    },
    {
        "title": "Monitor port\u00e1til - ASUS MB169B+, 15.6\", Full HD, IPS, ultrafino, giro autom\u00e1tico, Negro y Plata",
        "price": 199.0,
        "brand": "ASUS",
        "p_n": "1341044",
        "model": "MB169B+",
        "size": 15.6,
        "image_quality": "FHD",
        "resolution": "1920x1080",
        "resolution_values": {
            "X": 1920.0,
            "Y": 1080.0
        },
        "response_time": 14.0,
        "refresh_speed": null,
        "url": "https://www.mediamarkt.es/es/product/_monitor-port%C3%A1til-asus-mb169b-15-6-full-hd-ips-ultrafino-giro-autom%C3%A1tico-negro-y-plata-1341044.html",
        "e_commerce": "MediaMarkt"
    },
    {
        "title": "Monitor gaming - LG 27GK750F, 27 pulgadas, Full HD, 2 ms, Motion Blur Reduction, FreeSync, Negro",
        "price": 306.0,
        "brand": "LG ELECTRONICS",
        "p_n": "1393852",
        "model": "g - LG 27GK750F",
        "size": 27.0,
        "image_quality": "FHD",
        "resolution": "1920x1080",
        "resolution_values": {
            "X": 1920.0,
            "Y": 1080.0
        },
        "response_time": 2.0,
        "refresh_speed": null,
        "url": "https://www.mediamarkt.es/es/product/_monitor-gaming-lg-27gk750f-27-pulgadas-full-hd-2-ms-motion-blur-reduction-freesync-negro-1393852.html",
        "e_commerce": "MediaMarkt"
    },
    {
        "title": "Monitor de 23.8\" - Philips 245C7QJSB/00, 1920x1080, Full HD, WLED, Negro",
        "price": 179.0,
        "brand": "PHILIPS",
        "p_n": "1387281",
        "model": "245C7QJSB/00",
        "size": 23.8,
        "image_quality": "FHD",
        "resolution": "1920x1080",
        "resolution_values": {
            "X": 1920.0,
            "Y": 1080.0
        },
        "response_time": 5.0,
        "refresh_speed": null,
        "url": "https://www.mediamarkt.es/es/product/_monitor-de-23-8-philips-245c7qjsb-00-1920x1080-full-hd-wled-negro-1387281.html",
        "e_commerce": "MediaMarkt"
    },
    {
        "title": "Monitor - AOC I2790PQU/BT, 27\" FHD, IPS, 4ms, Flicker Free, Altavoces integrados, HDMI, USB, Plata",
        "price": 226.0,
        "brand": "AOC",
        "p_n": "1403951",
        "model": "I2790PQU/BT",
        "size": 27.0,
        "image_quality": "FHD",
        "resolution": "1920x1080",
        "resolution_values": {
            "X": 1920.0,
            "Y": 1080.0
        },
        "response_time": 4.0,
        "refresh_speed": null,
        "url": "https://www.mediamarkt.es/es/product/_monitor-aoc-i2790pqu-bt-27-fhd-ips-4ms-flicker-free-altavoces-integrados-hdmi-usb-plata-1403951.html",
        "e_commerce": "MediaMarkt"
    },
    {
        "title": "Monitor Gaming - Asus ROG Strix XG258Q, 24.5\", Full HD, 240Hz, 1ms, Negro",
        "price": 502.0,
        "brand": "ASUS",
        "p_n": "1383443",
        "model": "XG258Q",
        "size": 25.0,
        "image_quality": "FHD",
        "resolution": "1920x1080",
        "resolution_values": {
            "X": 1920.0,
            "Y": 1080.0
        },
        "response_time": 1.0,
        "refresh_speed": "240",
        "url": "https://www.mediamarkt.es/es/product/_monitor-gaming-asus-rog-strix-xg258q-24-5-full-hd-240hz-1ms-negro-1383443.html",
        "e_commerce": "MediaMarkt"
    },
    {
        "title": "Monitor - ACER ED323QURWIDPX, 31.5\" TFT, QHD LED, Curvo, 4 MS, Blanco",
        "price": 319.0,
        "brand": "ACER",
        "p_n": "1469488",
        "model": "ED323QUR",
        "size": 31.5,
        "image_quality": "HD",
        "resolution": "1366x768",
        "resolution_values": {
            "X": 1366.0,
            "Y": 768.0
        },
        "response_time": 4.0,
        "refresh_speed": null,
        "url": "https://www.mediamarkt.es/es/product/_monitor-acer-ed323qurwidpx-31-5-tft-qhd-led-curvo-4-ms-blanco-1469488.html",
        "e_commerce": "MediaMarkt"
    },
    {
        "title": "Monitor - AOC Q3279VWFD8, 31.5\", FullHD 2560x1440, 250 cd/m\u00b2, WLED, HDMI, DP, Negro",
        "price": 235.0,
        "brand": "AOC",
        "p_n": "1439488",
        "model": "Q3279VWFD8",
        "size": 31.5,
        "image_quality": "WQHD",
        "resolution": "2560x1440",
        "resolution_values": {
            "X": 2560.0,
            "Y": 1440.0
        },
        "response_time": 5.0,
        "refresh_speed": null,
        "url": "https://www.mediamarkt.es/es/product/_monitor-aoc-q3279vwfd8-31-5-fullhd-2560x1440-250-cd-m%C2%B2-wled-hdmi-dp-negro-1439488.html",
        "e_commerce": "MediaMarkt"
    },
    {
        "title": "Monitor Gaming - ASUS VA326H, 31.5\", Full HD, VA, Curvo, 4 ms, 144Hz, Antiparpadeo, Negro",
        "price": 543.0,
        "brand": "ASUS",
        "p_n": "1373094",
        "model": "VA326H",
        "size": 31.5,
        "image_quality": "HD",
        "resolution": "1366x768",
        "resolution_values": {
            "X": 1366.0,
            "Y": 768.0
        },
        "response_time": 4.0,
        "refresh_speed": "144",
        "url": "https://www.mediamarkt.es/es/product/_monitor-gaming-asus-va326h-31-5-full-hd-va-curvo-4-ms-144hz-antiparpadeo-negro-1373094.html",
        "e_commerce": "MediaMarkt"
    },
    {
        "title": "Monitor - ASUS VP247NA, 23.6\", Full HD, VA, 5 ms, DVI, VGA, Eye Care, Negro",
        "price": 119.0,
        "brand": "ASUS",
        "p_n": "1465435",
        "model": "VP247NA",
        "size": 23.6,
        "image_quality": "FHD",
        "resolution": "1920x1080",
        "resolution_values": {
            "X": 1920.0,
            "Y": 1080.0
        },
        "response_time": 5.0,
        "refresh_speed": null,
        "url": "https://www.mediamarkt.es/es/product/_monitor-asus-vp247na-23-6-full-hd-va-5-ms-dvi-vga-eye-care-negro-1465435.html",
        "e_commerce": "MediaMarkt"
    },
    {
        "title": "Monitor gaming - AOC AG352QCX, 35\", FullHD, Curvo, 4 ms, HDMI, DisplayPort, DVI, USB, 300 cd/m\u00b2, FreeSync",
        "price": 699.0,
        "brand": "AOC",
        "p_n": "1471153",
        "model": "AG352QCX",
        "size": 35.0,
        "image_quality": "HD",
        "resolution": "1366x768",
        "resolution_values": {
            "X": 1366.0,
            "Y": 768.0
        },
        "response_time": 4.0,
        "refresh_speed": null,
        "url": "https://www.mediamarkt.es/es/product/_monitor-gaming-aoc-ag352qcx-35-fullhd-curvo-4-ms-hdmi-displayport-dvi-usb-300-cd-m%C2%B2-freesync-1471153.html",
        "e_commerce": "MediaMarkt"
    },
    {
        "title": "Monitor - UltraSharp U2412M LED display 61 cm (24\") Full HD Plana Mate Negro",
        "price": 228.1,
        "brand": "DELL",
        "p_n": "1400229",
        "model": "itor",
        "size": 24.0,
        "image_quality": "WUXGA",
        "resolution": "1920x1200",
        "resolution_values": {
            "X": 1920.0,
            "Y": 1200.0
        },
        "response_time": 8.0,
        "refresh_speed": null,
        "url": "https://www.mediamarkt.es/es/product/_monitor-ultrasharp-u2412m-led-display-61-cm-24-full-hd-plana-mate-negro-1400229.html",
        "e_commerce": "MediaMarkt"
    },
    {
        "title": "Monitor - Asus VP229HAL, 21,5\", IPS, FullHD, 5ms, Eye Care, antiparpadeo, Negro",
        "price": 143.0,
        "brand": "ASUS",
        "p_n": "1394431",
        "model": "VP229HAL",
        "size": 21.5,
        "image_quality": "FHD",
        "resolution": "1920x1080",
        "resolution_values": {
            "X": 1920.0,
            "Y": 1080.0
        },
        "response_time": 5.0,
        "refresh_speed": null,
        "url": "https://www.mediamarkt.es/es/product/_monitor-asus-vp229hal-21-5-ips-fullhd-5ms-eye-care-antiparpadeo-negro-1394431.html",
        "e_commerce": "MediaMarkt"
    },
    {
        "title": "Monitor gaming - Acer Predator XB271HU, 27\", TN Film, 2K, 1ms, 144Hz, Negro y rojo",
        "price": 479.0,
        "brand": "ACER",
        "p_n": "1335341",
        "model": "Predator XB271HU",
        "size": 27.0,
        "image_quality": "WQHD",
        "resolution": "2560x1440",
        "resolution_values": {
            "X": 2560.0,
            "Y": 1440.0
        },
        "response_time": 1.0,
        "refresh_speed": "144",
        "url": "https://www.mediamarkt.es/es/product/_monitor-gaming-acer-predator-xb271hu-27-tn-film-2k-1ms-144hz-negro-y-rojo-1335341.html",
        "e_commerce": "MediaMarkt"
    },
    {
        "title": "Monitor - Asus PA279Q , 27\", WQHD, AH-IPS, HDMI, 49W, 1073.7M colores",
        "price": 668.25,
        "brand": "ASUS",
        "p_n": "1271228",
        "model": "PA279Q",
        "size": 27.0,
        "image_quality": "HD",
        "resolution": "1366x768",
        "resolution_values": {
            "X": 1366.0,
            "Y": 768.0
        },
        "response_time": 6.0,
        "refresh_speed": null,
        "url": "https://www.mediamarkt.es/es/product/_monitor-asus-pa279q-27-wqhd-ah-ips-hdmi-49w-1073-7m-colores-1271228.html",
        "e_commerce": "MediaMarkt"
    },
    {
        "title": "Monitor - BenQ BL2483T, 24\", Full HD, TN, 5 ms, 16:9, FreeSync\u2122, HDMI, DVI-D, LED Negro",
        "price": 180.65,
        "brand": "BENQ",
        "p_n": "1473529",
        "model": "BL2483T",
        "size": 24.0,
        "image_quality": "FHD",
        "resolution": "1920x1080",
        "resolution_values": {
            "X": 1920.0,
            "Y": 1080.0
        },
        "response_time": 1.0,
        "refresh_speed": null,
        "url": "https://www.mediamarkt.es/es/product/_monitor-benq-bl2483t-24-full-hd-tn-5-ms-16-9-freesync%E2%84%A2-hdmi-dvi-d-led-negro-1473529.html",
        "e_commerce": "MediaMarkt"
    },
    {
        "title": "Monitor - LG 34WL85C-B, 34\" QHD, 5ms, 60 Hz, Curvo, DP, MaxxAudio Surround, DAS, Negro",
        "price": 699.0,
        "brand": "LG ELECTRONICS",
        "p_n": "1481720",
        "model": "34WL85C-B",
        "size": 34.0,
        "image_quality": "WQHD",
        "resolution": "2560x1440",
        "resolution_values": {
            "X": 2560.0,
            "Y": 1440.0
        },
        "response_time": 5.0,
        "refresh_speed": "60",
        "url": "https://www.mediamarkt.es/es/product/_monitor-lg-34wl85c-b-34-qhd-5ms-60-hz-curvo-dp-maxxaudio-surround-das-negro-1481720.html",
        "e_commerce": "MediaMarkt"
    },
    {
        "title": "Monitor profesional - Asus ProArt PA27AC, 27\", IPS,  WQHD,400 nits,5 ms,HDR-10,100% sRGB, \u0394E <lt/> 2",
        "price": 699.0,
        "brand": "ASUS",
        "p_n": "1394420",
        "model": "PA27AC",
        "size": 27.0,
        "image_quality": "WQHD",
        "resolution": "2560x1440",
        "resolution_values": {
            "X": 2560.0,
            "Y": 1440.0
        },
        "response_time": 5.0,
        "refresh_speed": null,
        "url": "https://www.mediamarkt.es/es/product/_monitor-profesional-asus-proart-pa27ac-27-ips-wqhd-400-nits-5-ms-hdr-10-100-srgb-%CE%B4e-lt-2-1394420.html",
        "e_commerce": "MediaMarkt"
    },
    {
        "title": "Monitor gaming - MSI Optix G27CQ4, 27\" WQHD, 1 ms, 50/60 Hz, DisplayPort, HDMI, Curvo, FreeSync, Flicker Free",
        "price": 419.0,
        "brand": "MSI",
        "p_n": "1482420",
        "model": "Optix G27CQ4",
        "size": 27.0,
        "image_quality": "WQHD",
        "resolution": "2560x1440",
        "resolution_values": {
            "X": 2560.0,
            "Y": 1440.0
        },
        "response_time": 1.0,
        "refresh_speed": "60",
        "url": "https://www.mediamarkt.es/es/product/_monitor-gaming-msi-optix-g27cq4-27-wqhd-1-ms-50-60-hz-displayport-hdmi-curvo-freesync-flicker-free-1482420.html",
        "e_commerce": "MediaMarkt"
    },
    {
        "title": "Monitor gaming - AOC AG273QX, 27\" QHD 2K, 4 ms, FreeSync 2, FlickerFree, LowBlue Mode, HDMI, Negro",
        "price": 499.0,
        "brand": "AOC",
        "p_n": "1471155",
        "model": "AG273QX",
        "size": 27.0,
        "image_quality": "HD",
        "resolution": "1366x768",
        "resolution_values": {
            "X": 1366.0,
            "Y": 768.0
        },
        "response_time": 4.0,
        "refresh_speed": null,
        "url": "https://www.mediamarkt.es/es/product/_monitor-gaming-aoc-ag273qx-27-qhd-2k-4-ms-freesync-2-flickerfree-lowblue-mode-hdmi-negro-1471155.html",
        "e_commerce": "MediaMarkt"
    },
    {
        "title": "Monitor gaming - Asus VP279QGL, 27\" Full HD, 5 ms, 75 Hz, FreeSync\u2122, Negro",
        "price": 262.81,
        "brand": "ASUS",
        "p_n": "1473545",
        "model": "VP279QGL",
        "size": 27.0,
        "image_quality": "FHD",
        "resolution": "1920x1080",
        "resolution_values": {
            "X": 1920.0,
            "Y": 1080.0
        },
        "response_time": 5.0,
        "refresh_speed": "75",
        "url": "https://www.mediamarkt.es/es/product/_monitor-gaming-asus-vp279qgl-27-full-hd-5-ms-75-hz-freesync%E2%84%A2-negro-1473545.html",
        "e_commerce": "MediaMarkt"
    },
    {
        "title": "Monitor gaming - Lenovo Legion Y27GQ-25, 27\" WQHD, 0.5 ms, 240 Hz, HDMI, DisplayPort, USB, Negro",
        "price": 903.0,
        "brand": "LENOVO",
        "p_n": "1468980",
        "model": "Legion Y27GQ-25",
        "size": 27.0,
        "image_quality": "WQHD",
        "resolution": "2560x1440",
        "resolution_values": {
            "X": 2560.0,
            "Y": 1440.0
        },
        "response_time": 0.5,
        "refresh_speed": "40",
        "url": "https://www.mediamarkt.es/es/product/_monitor-gaming-lenovo-legion-y27gq-25-27-wqhd-0-5-ms-240-hz-hdmi-displayport-usb-negro-1468980.html",
        "e_commerce": "MediaMarkt"
    },
    {
        "title": "Monitor gaming - BenQ Zowie XL2740, 27\" 1920x1080, 1ms, 240Hz, Negro",
        "price": 545.0,
        "brand": "ZOWIE",
        "p_n": "1404994",
        "model": "XL2740",
        "size": 27.0,
        "image_quality": "FHD",
        "resolution": "1920x1080",
        "resolution_values": {
            "X": 1920.0,
            "Y": 1080.0
        },
        "response_time": 1.0,
        "refresh_speed": "240",
        "url": "https://www.mediamarkt.es/es/product/_monitor-gaming-benq-zowie-xl2740-27-1920x1080-1ms-240hz-negro-1404994.html",
        "e_commerce": "MediaMarkt"
    },
    {
        "title": "Monitor gaming - LG 34UM69G-B, 34\", Ultra HD, IPS, Conector Usb Tipo-C",
        "price": 359.0,
        "brand": "LG ELECTRONICS",
        "p_n": "1365244",
        "model": "g - LG 34UM69G-B",
        "size": 34.0,
        "image_quality": "HD",
        "resolution": "1366x768",
        "resolution_values": {
            "X": 1366.0,
            "Y": 768.0
        },
        "response_time": 1.0,
        "refresh_speed": null,
        "url": "https://www.mediamarkt.es/es/product/_monitor-gaming-lg-34um69g-b-34-ultra-hd-ips-conector-usb-tipo-c-1365244.html",
        "e_commerce": "MediaMarkt"
    },
    {
        "title": "Monitor Curvo - BenQ EX3203R, Gaming, 31.5\", QHD 2K 144 Hz HDR, HDMI, USB-C, Negro y Gris",
        "price": 499.0,
        "brand": "BENQ",
        "p_n": "1435228",
        "model": "EX3203R",
        "size": 31.5,
        "image_quality": "WQHD",
        "resolution": "2560x1440",
        "resolution_values": {
            "X": 2560.0,
            "Y": 1440.0
        },
        "response_time": 4.0,
        "refresh_speed": "44",
        "url": "https://www.mediamarkt.es/es/product/_monitor-curvo-benq-ex3203r-gaming-31-5-qhd-2k-144-hz-hdr-hdmi-usb-c-negro-y-gris-1435228.html",
        "e_commerce": "MediaMarkt"
    },
    {
        "title": "Monitor gaming - BenQ EX2780Q, 27 \", QHD, IPS, 5ms, 144 Hz, FreeSync, Negro",
        "price": 399.0,
        "brand": "BENQ",
        "p_n": "1473530",
        "model": "EX2780Q",
        "size": 27.0,
        "image_quality": "HD",
        "resolution": "1366x768",
        "resolution_values": {
            "X": 1366.0,
            "Y": 768.0
        },
        "response_time": 5.0,
        "refresh_speed": "44",
        "url": "https://www.mediamarkt.es/es/product/_monitor-gaming-benq-ex2780q-27-qhd-ips-5ms-144-hz-freesync-negro-1473530.html",
        "e_commerce": "MediaMarkt"
    },
    {
        "title": "Monitor Gaming - Asus VG248QE, Gaming,24\", TN, FHD,144 Hz,1ms,350 nits, DisplayPort",
        "price": 199.0,
        "brand": "ASUS",
        "p_n": "1187193",
        "model": "VG248QE",
        "size": 24.0,
        "image_quality": "HD",
        "resolution": "1366x768",
        "resolution_values": {
            "X": 1366.0,
            "Y": 768.0
        },
        "response_time": 1.0,
        "refresh_speed": "44",
        "url": "https://www.mediamarkt.es/es/product/_monitor-gaming-asus-vg248qe-gaming-24-tn-fhd-144-hz-1ms-350-nits-displayport-1187193.html",
        "e_commerce": "MediaMarkt"
    },
    {
        "title": "Monitor gaming - Asus ROG Strix XG49VQ, 49\", ultrapanor\u00e1mico, 144Hz, 400 nits, FreeSync\u2122 2 HDR",
        "price": 899.0,
        "brand": "ASUS",
        "p_n": "1453765",
        "model": "ROG Strix XG49VQ",
        "size": 49.0,
        "image_quality": "2K",
        "resolution": "3200x1800",
        "resolution_values": {
            "X": 3200.0,
            "Y": 1800.0
        },
        "response_time": 4.0,
        "refresh_speed": "144",
        "url": "https://www.mediamarkt.es/es/product/_monitor-gaming-asus-rog-strix-xg49vq-49-ultrapanor%C3%A1mico-144hz-400-nits-freesync%E2%84%A2-2-hdr-1453765.html",
        "e_commerce": "MediaMarkt"
    },
    {
        "title": "Monitor -  Lenovo G25-10 62,2 cm, 24.5\" 1920 x 1080, Pixeles Full HD LED, Plana Negro",
        "price": 210.0,
        "brand": "LENOVO",
        "p_n": "1473981",
        "model": "-",
        "size": 24.5,
        "image_quality": "FHD",
        "resolution": "1920x1080",
        "resolution_values": {
            "X": 1920.0,
            "Y": 1080.0
        },
        "response_time": 5.0,
        "refresh_speed": null,
        "url": "https://www.mediamarkt.es/es/product/_monitor-lenovo-g25-10-62-2-cm-24-5-1920-x-1080-pixeles-full-hd-led-plana-negro-1473981.html",
        "e_commerce": "MediaMarkt"
    },
    {
        "title": "Monitor - Lenovo L27M-28, 27\" Full-HD, 4 ms, 75 Hz, 1xHDMI, 1xVGA, 1xUSB-C, FreeSync, Negro",
        "price": 259.0,
        "brand": "LENOVO",
        "p_n": "1469001",
        "model": "L27M-28",
        "size": 27.0,
        "image_quality": "FHD",
        "resolution": "1920x1080",
        "resolution_values": {
            "X": 1920.0,
            "Y": 1080.0
        },
        "response_time": 4.0,
        "refresh_speed": "75",
        "url": "https://www.mediamarkt.es/es/product/_monitor-lenovo-l27m-28-27-full-hd-4-ms-75-hz-1xhdmi-1xvga-1xusb-c-freesync-negro-1469001.html",
        "e_commerce": "MediaMarkt"
    },
    {
        "title": "Monitor gaming - Lenovo Legion Y44w-10, 43.4\" DWUXGA, Curva, 4 ms, 144 Hz, 2 HDMI, USB, FreeSync 2, Negro",
        "price": 949.0,
        "brand": "LENOVO",
        "p_n": "1468981",
        "model": "Y44w-10",
        "size": 43.4,
        "image_quality": "WUXGA",
        "resolution": "1920x1200",
        "resolution_values": {
            "X": 1920.0,
            "Y": 1200.0
        },
        "response_time": 4.0,
        "refresh_speed": "44",
        "url": "https://www.mediamarkt.es/es/product/_monitor-gaming-lenovo-legion-y44w-10-43-4-dwuxga-curva-4-ms-144-hz-2-hdmi-usb-freesync-2-negro-1468981.html",
        "e_commerce": "MediaMarkt"
    },
    {
        "title": "Monitor - BenQ BL702A, 17 pulgadas, HD",
        "price": 114.0,
        "brand": "BENQ",
        "p_n": "1313143",
        "model": "BL702A",
        "size": 17.0,
        "image_quality": "HD+",
        "resolution": "1600x900",
        "resolution_values": {
            "X": 1600.0,
            "Y": 900.0
        },
        "response_time": 5.0,
        "refresh_speed": null,
        "url": "https://www.mediamarkt.es/es/product/_monitor-benq-bl702a-17-pulgadas-hd-1313143.html",
        "e_commerce": "MediaMarkt"
    },
    {
        "title": "Monitor gaming - Acer Predator Z Series Z35, 35\", UltraWide Quad HD, LED, 4 ms, HDMI, Negro",
        "price": 639.0,
        "brand": "ACER",
        "p_n": "1372759",
        "model": "Predator Z Series Z35",
        "size": 35.0,
        "image_quality": "HD",
        "resolution": "1366x768",
        "resolution_values": {
            "X": 1366.0,
            "Y": 768.0
        },
        "response_time": 4.0,
        "refresh_speed": null,
        "url": "https://www.mediamarkt.es/es/product/_monitor-gaming-acer-predator-z-series-z35-35-ultrawide-quad-hd-led-4-ms-hdmi-negro-1372759.html",
        "e_commerce": "MediaMarkt"
    },
    {
        "title": "Monitor gaming - Asus TUF Gaming VG35VQ, 35\", Curvo, LED UltraWide, QuadHD, 1ms, 100Hz, HDMI, Negro",
        "price": 1191.24,
        "brand": "ASUS",
        "p_n": "1473547",
        "model": "TUF Gaming VG35VQ",
        "size": 34.0,
        "image_quality": "HD",
        "resolution": "1366x768",
        "resolution_values": {
            "X": 1366.0,
            "Y": 768.0
        },
        "response_time": 1.0,
        "refresh_speed": "100",
        "url": "https://www.mediamarkt.es/es/product/_monitor-gaming-asus-tuf-gaming-vg35vq-35-curvo-led-ultrawide-quadhd-1ms-100hz-hdmi-negro-1473547.html",
        "e_commerce": "MediaMarkt"
    },
    {
        "title": "Monitor - LG UltraWide 38WN75C, 38\" QHD+, 5 ms, 75 Hz, DPx1, HDMIx2, Auriculares, Negro",
        "price": 922.0,
        "brand": "LG ELECTRONICS",
        "p_n": "1477811",
        "model": "38WN75C",
        "size": 38.0,
        "image_quality": "HD+",
        "resolution": "1600x900",
        "resolution_values": {
            "X": 1600.0,
            "Y": 900.0
        },
        "response_time": 5.0,
        "refresh_speed": "75",
        "url": "https://www.mediamarkt.es/es/product/_monitor-lg-ultrawide-38wn75c-38-qhd-5-ms-75-hz-dpx1-hdmix2-auriculares-negro-1477811.html",
        "e_commerce": "MediaMarkt"
    },
    {
        "title": "Monitor - LG 27Uk670- B 27, 27\", IPS, 68.6 cm, Negro",
        "price": 430.0,
        "brand": "LG ELECTRONICS",
        "p_n": "1465566",
        "model": "27Uk670- B 27",
        "size": 27.0,
        "image_quality": "4K",
        "resolution": "4096x2160",
        "resolution_values": {
            "X": 4096.0,
            "Y": 2160.0
        },
        "response_time": 5.0,
        "refresh_speed": null,
        "url": "https://www.mediamarkt.es/es/product/_monitor-lg-27uk670-b-27-27-ips-68-6-cm-negro-1465566.html",
        "e_commerce": "MediaMarkt"
    },
    {
        "title": "Monitor gaming - MSI Optix G271, 27\" FullHD, 1 ms, 144 Hz, Anti-Flicker, AMD FreeSync, Negro",
        "price": 299.0,
        "brand": "MSI",
        "p_n": "1482419",
        "model": "Optix G271",
        "size": 27.0,
        "image_quality": "FHD",
        "resolution": "1920x1080",
        "resolution_values": {
            "X": 1920.0,
            "Y": 1080.0
        },
        "response_time": 1.0,
        "refresh_speed": "44",
        "url": "https://www.mediamarkt.es/es/product/_monitor-gaming-msi-optix-g271-27-fullhd-1-ms-144-hz-anti-flicker-amd-freesync-negro-1482419.html",
        "e_commerce": "MediaMarkt"
    },
    {
        "title": "Monitor gaming - Asus VG27BQ, 27\" WQHD, Panel TN, 0.4 ms, 165 Hz, HDMI, Negro",
        "price": 459.0,
        "brand": "ASUS",
        "p_n": "1471694",
        "model": "VG27BQ",
        "size": 27.0,
        "image_quality": "WQHD",
        "resolution": "2560x1440",
        "resolution_values": {
            "X": 2560.0,
            "Y": 1440.0
        },
        "response_time": 0.4,
        "refresh_speed": "65",
        "url": "https://www.mediamarkt.es/es/product/_monitor-gaming-asus-vg27bq-27-wqhd-panel-tn-0-4-ms-165-hz-hdmi-negro-1471694.html",
        "e_commerce": "MediaMarkt"
    },
    {
        "title": "Monitor de 27\" - AOC G2790PX, Full HD, TN, LED",
        "price": 299.0,
        "brand": "AOC",
        "p_n": "1399546",
        "model": "G2790PX",
        "size": 27.0,
        "image_quality": "FHD",
        "resolution": "1920x1080",
        "resolution_values": {
            "X": 1920.0,
            "Y": 1080.0
        },
        "response_time": 1.0,
        "refresh_speed": null,
        "url": "https://www.mediamarkt.es/es/product/_monitor-de-27-aoc-g2790px-full-hd-tn-led-1399546.html",
        "e_commerce": "MediaMarkt"
    },
    {
        "title": "Monitor gaming - LENOVO Legion Y27gq-20, 27\" QHD, 1 ms, 165 Hz, 1 HDMI, Negro",
        "price": 559.0,
        "brand": "LENOVO",
        "p_n": "1468979",
        "model": "Legion Y27gq-20",
        "size": 27.0,
        "image_quality": "HD",
        "resolution": "1366x768",
        "resolution_values": {
            "X": 1366.0,
            "Y": 768.0
        },
        "response_time": 1.0,
        "refresh_speed": "65",
        "url": "https://www.mediamarkt.es/es/product/_monitor-gaming-lenovo-legion-y27gq-20-27-qhd-1-ms-165-hz-1-hdmi-negro-1468979.html",
        "e_commerce": "MediaMarkt"
    },
    {
        "title": "Monitor gaming - LG 32QK500-C, 31.5\" QHD, 8 ms, 75 Hz, HDMI, FlickerSafe, Negro",
        "price": 299.0,
        "brand": "LG ELECTRONICS",
        "p_n": "1475907",
        "model": "32QK500-C",
        "size": 31.5,
        "image_quality": "HD",
        "resolution": "1366x768",
        "resolution_values": {
            "X": 1366.0,
            "Y": 768.0
        },
        "response_time": 8.0,
        "refresh_speed": "75",
        "url": "https://www.mediamarkt.es/es/product/_monitor-gaming-lg-32qk500-c-31-5-qhd-8-ms-75-hz-hdmi-flickersafe-negro-1475907.html",
        "e_commerce": "MediaMarkt"
    },
    {
        "title": "Monitor - Acer R271BWMIX, 23.8\", Full-HD, LED IPS, FreeSync, 1 ms, 75 HZ, VGA, HDMI, Blanco",
        "price": 150.0,
        "brand": "ACER",
        "p_n": "1475803",
        "model": "R271BWMIX",
        "size": 23.8,
        "image_quality": "FHD",
        "resolution": "1920x1080",
        "resolution_values": {
            "X": 1920.0,
            "Y": 1080.0
        },
        "response_time": 1.0,
        "refresh_speed": "75",
        "url": "https://www.mediamarkt.es/es/product/_monitor-acer-r271bwmix-23-8-full-hd-led-ips-freesync-1-ms-75-hz-vga-hdmi-blanco-1475803.html",
        "e_commerce": "MediaMarkt"
    },
    {
        "title": "Monitor gaming - LG 32GK650F-B, 31.5\", LED, FreeSync, 16:9, HDMI, Negro",
        "price": 379.0,
        "brand": "LG ELECTRONICS",
        "p_n": "1465564",
        "model": "32GK650F-B",
        "size": 31.5,
        "image_quality": "HD",
        "resolution": "1366x768",
        "resolution_values": {
            "X": 1366.0,
            "Y": 768.0
        },
        "response_time": 5.0,
        "refresh_speed": null,
        "url": "https://www.mediamarkt.es/es/product/_monitor-gaming-lg-32gk650f-b-31-5-led-freesync-16-9-hdmi-negro-1465564.html",
        "e_commerce": "MediaMarkt"
    },
    {
        "title": "Monitor gaming - Acer Predator XB271HU, 27\", IPS, 2K, 4ms, 144Hz, Negro y rojo",
        "price": 763.0,
        "brand": "ACER",
        "p_n": "1318074",
        "model": "Predator XB271HU",
        "size": 27.0,
        "image_quality": "WQHD",
        "resolution": "2560x1440",
        "resolution_values": {
            "X": 2560.0,
            "Y": 1440.0
        },
        "response_time": 4.0,
        "refresh_speed": "144",
        "url": "https://www.mediamarkt.es/es/product/_monitor-gaming-acer-predator-xb271hu-27-ips-2k-4ms-144hz-negro-y-rojo-1318074.html",
        "e_commerce": "MediaMarkt"
    },
    {
        "title": "Monitor - MSI Optix MPG27CQ2 27\" LED Wide QuadHD 144Hz Curvo",
        "price": 485.0,
        "brand": "MSI",
        "p_n": "1475189",
        "model": "MSI Optix MPG27CQ2",
        "size": 27.0,
        "image_quality": "HD",
        "resolution": "1366x768",
        "resolution_values": {
            "X": 1366.0,
            "Y": 768.0
        },
        "response_time": 1.0,
        "refresh_speed": "144",
        "url": "https://www.mediamarkt.es/es/product/_monitor-msi-optix-mpg27cq2-27-led-wide-quadhd-144hz-curvo-1475189.html",
        "e_commerce": "MediaMarkt"
    },
    {
        "title": "Monitor Gaming - AOC AGON AG241QG, 23.8 Pulgadas, Wide Quad HD, 1MS",
        "price": 529.0,
        "brand": "AOC",
        "p_n": "1346769",
        "model": "AG241QG",
        "size": 24.0,
        "image_quality": "HD",
        "resolution": "1366x768",
        "resolution_values": {
            "X": 1366.0,
            "Y": 768.0
        },
        "response_time": 1.0,
        "refresh_speed": null,
        "url": "https://www.mediamarkt.es/es/product/_monitor-gaming-aoc-agon-ag241qg-23-8-pulgadas-wide-quad-hd-1ms-1346769.html",
        "e_commerce": "MediaMarkt"
    },
    {
        "title": "Monitor - AOC AG352UCG6, 35\", Curvo, 4ms, QHD, HDMI, DisplayPort, Inclinable, 300 cd/m\u00b2, NVIDIA G-Sync, Negro",
        "price": 826.0,
        "brand": "AOC",
        "p_n": "1471154",
        "model": "AG352UCG6",
        "size": 35.0,
        "image_quality": "HD",
        "resolution": "1366x768",
        "resolution_values": {
            "X": 1366.0,
            "Y": 768.0
        },
        "response_time": 4.0,
        "refresh_speed": null,
        "url": "https://www.mediamarkt.es/es/product/_monitor-aoc-ag352ucg6-35-curvo-4ms-qhd-hdmi-displayport-inclinable-300-cd-m%C2%B2-nvidia-g-sync-negro-1471154.html",
        "e_commerce": "MediaMarkt"
    },
    {
        "title": "Monitor -  Curvo MSI Optix MAG321CURV 31,5 '' UHD, Negro",
        "price": 497.0,
        "brand": "MSI",
        "p_n": "1461562",
        "model": "Optix MAG321CURV",
        "size": 31.5,
        "image_quality": "4K",
        "resolution": "4096x2160",
        "resolution_values": {
            "X": 4096.0,
            "Y": 2160.0
        },
        "response_time": 4.0,
        "refresh_speed": null,
        "url": "https://www.mediamarkt.es/es/product/_monitor-curvo-msi-optix-mag321curv-31-5-uhd-negro-1461562.html",
        "e_commerce": "MediaMarkt"
    },
    {
        "title": "Monitor - LG 27MD5KL-B 27 \" 5120x2880 p\u00edxeles, 3 USB-C1 Thunderbolt 31 Salida de audio, Negro",
        "price": 1359.0,
        "brand": "LG ELECTRONICS",
        "p_n": "1471168",
        "model": "27MD5KL",
        "size": 27.0,
        "image_quality": "5K",
        "resolution": "5120x2160",
        "resolution_values": {
            "X": 5120.0,
            "Y": 2160.0
        },
        "response_time": 14.0,
        "refresh_speed": null,
        "url": "https://www.mediamarkt.es/es/product/_monitor-lg-27md5kl-b-27-5120x2880-p%C3%ADxeles-3-usb-c1-thunderbolt-31-salida-de-audio-negro-1471168.html",
        "e_commerce": "MediaMarkt"
    },
    {
        "title": "Monitor - Acer PREDATOR Z271T, Full HD, Curvo, Negro, LED, EyeTracking",
        "price": 799.0,
        "brand": "ACER",
        "p_n": "1372754",
        "model": "PREDATOR Z271T",
        "size": 27.0,
        "image_quality": "HD",
        "resolution": "1366x768",
        "resolution_values": {
            "X": 1366.0,
            "Y": 768.0
        },
        "response_time": 4.0,
        "refresh_speed": null,
        "url": "https://www.mediamarkt.es/es/product/_monitor-acer-predator-z271t-full-hd-curvo-negro-led-eyetracking-1372754.html",
        "e_commerce": "MediaMarkt"
    },
    {
        "title": "Monitor - Asus MX32VQ, Curvo, 32\", WQHD, 4 ms, Sonido Harman Kardon, Gris espacio y Negro",
        "price": 599.0,
        "brand": "ASUS",
        "p_n": "1394398",
        "model": "MX32VQ",
        "size": 32.0,
        "image_quality": "WQHD",
        "resolution": "2560x1440",
        "resolution_values": {
            "X": 2560.0,
            "Y": 1440.0
        },
        "response_time": 4.0,
        "refresh_speed": null,
        "url": "https://www.mediamarkt.es/es/product/_monitor-asus-mx32vq-curvo-32-wqhd-4-ms-sonido-harman-kardon-gris-espacio-y-negro-1394398.html",
        "e_commerce": "MediaMarkt"
    },
    {
        "title": "Monitor - Philips 223V7QHAB/00, 21.5\" IPS LCD FHD, 5 ms, VGA, Negro",
        "price": 101.0,
        "brand": "PHILIPS",
        "p_n": "1467196",
        "model": "223V7QHAB/00",
        "size": 21.5,
        "image_quality": "FHD",
        "resolution": "1920x1080",
        "resolution_values": {
            "X": 1920.0,
            "Y": 1080.0
        },
        "response_time": 5.0,
        "refresh_speed": null,
        "url": "https://www.mediamarkt.es/es/product/_monitor-philips-223v7qhab-00-21-5-ips-lcd-fhd-5-ms-vga-negro-1467196.html",
        "e_commerce": "MediaMarkt"
    },
    {
        "title": "Monitor gaming - AOC AG273QCX, 27\" QHD 2K, 4 ms, FreeSync, FlickerFree, LowBlue Mode, HDMI, Negro",
        "price": 603.0,
        "brand": "AOC",
        "p_n": "1471156",
        "model": "AG273QCX",
        "size": 27.0,
        "image_quality": "HD",
        "resolution": "1366x768",
        "resolution_values": {
            "X": 1366.0,
            "Y": 768.0
        },
        "response_time": 4.0,
        "refresh_speed": null,
        "url": "https://www.mediamarkt.es/es/product/_monitor-gaming-aoc-ag273qcx-27-qhd-2k-4-ms-freesync-flickerfree-lowblue-mode-hdmi-negro-1471156.html",
        "e_commerce": "MediaMarkt"
    },
    {
        "title": "Monitor gaming - Acer Predator X35, 35 '' Curva VA QHD, 4 ms, 200 Hz, G-Sync Ultimate, Negro",
        "price": 2299.0,
        "brand": "ACER",
        "p_n": "1479104",
        "model": "Predator X35",
        "size": 35.0,
        "image_quality": "HD",
        "resolution": "1366x768",
        "resolution_values": {
            "X": 1366.0,
            "Y": 768.0
        },
        "response_time": 4.0,
        "refresh_speed": "00",
        "url": "https://www.mediamarkt.es/es/product/_monitor-gaming-acer-predator-x35-35-curva-va-qhd-4-ms-200-hz-g-sync-ultimate-negro-1479104.html",
        "e_commerce": "MediaMarkt"
    },
    {
        "title": "Monitor gaming - ASUS VP348QGL, 34 '' QHD, 4 ms, 75 Hz, HDMI, Negro",
        "price": 539.0,
        "brand": "ASUS",
        "p_n": "1479329",
        "model": "VP348QGL",
        "size": 34.0,
        "image_quality": "HD",
        "resolution": "1366x768",
        "resolution_values": {
            "X": 1366.0,
            "Y": 768.0
        },
        "response_time": 4.0,
        "refresh_speed": "75",
        "url": "https://www.mediamarkt.es/es/product/_monitor-gaming-asus-vp348qgl-34-qhd-4-ms-75-hz-hdmi-negro-1479329.html",
        "e_commerce": "MediaMarkt"
    },
    {
        "title": "Monitor gaming - BenQ EW2780Q, 27\",  LED IPS QuadHD, HDRi, 16:9, Eye-care, HDMI, Negro",
        "price": 329.0,
        "brand": "BENQ",
        "p_n": "1473531",
        "model": "EW2780Q",
        "size": 27.0,
        "image_quality": "HD",
        "resolution": "1366x768",
        "resolution_values": {
            "X": 1366.0,
            "Y": 768.0
        },
        "response_time": 5.0,
        "refresh_speed": null,
        "url": "https://www.mediamarkt.es/es/product/_monitor-gaming-benq-ew2780q-27-led-ips-quadhd-hdri-16-9-eye-care-hdmi-negro-1473531.html",
        "e_commerce": "MediaMarkt"
    },
    {
        "title": "Monitor gaming - AOC AG273QCG, 27\", Curvo, 1 ms, QHD, HDMI, DisplayPort, 400cd/m\u00b2, 165 Hz, Nvidia G-Sync, Rojo",
        "price": 612.0,
        "brand": "AOC",
        "p_n": "1471157",
        "model": "AG273QCG",
        "size": 27.0,
        "image_quality": "HD",
        "resolution": "1366x768",
        "resolution_values": {
            "X": 1366.0,
            "Y": 768.0
        },
        "response_time": 1.0,
        "refresh_speed": "65",
        "url": "https://www.mediamarkt.es/es/product/_monitor-gaming-aoc-ag273qcg-27-curvo-1-ms-qhd-hdmi-displayport-400cd-m%C2%B2-165-hz-nvidia-g-sync-rojo-1471157.html",
        "e_commerce": "MediaMarkt"
    },
    {
        "title": "Monitor - DELL UltraSharp UP3017, 30\", IPS, W-LED, HDMI, 2560 x 1600 p\u00edxeles, Negro",
        "price": 1063.0,
        "brand": "DELL",
        "p_n": "1436015",
        "model": "UP3017",
        "size": 30.0,
        "image_quality": "QXGA",
        "resolution": "2048x1536",
        "resolution_values": {
            "X": 2048.0,
            "Y": 1536.0
        },
        "response_time": 6.0,
        "refresh_speed": null,
        "url": "https://www.mediamarkt.es/es/product/_monitor-dell-ultrasharp-up3017-30-ips-w-led-hdmi-2560-x-1600-p%C3%ADxeles-negro-1436015.html",
        "e_commerce": "MediaMarkt"
    }
]