[
    "https://www.mediamarkt.es/es/product/_monitor-philips-223v5lhsb2-00-22-full-hd-5ms-vesa-vga-conexi%C3%B3n-hdmi-negro-1291685.html",
    "https://www.mediamarkt.es/es/product/_monitor-acer-ka272bi-27-1ms-full-hd-1920-x-1080-hdmi-freesync-negro-1469355.html",
    "https://www.mediamarkt.es/es/product/_monitor-acer-ka242y-23-8-1ms-full-hd-1920-x-1080-hdmi-freesync-250-cd-m%C2%B2-75-hz-ips-negro-1469354.html",
    "https://www.mediamarkt.es/es/product/_monitor-lg-29wk600-w-29-full-hd-plus-ips-hdr10-5-ms-blanco-y-plateado-1401127.html",
    "https://www.mediamarkt.es/es/product/_monitor-philips-lcd-tft-193v5lsb2-10-1203656.html",
    "https://www.mediamarkt.es/es/product/_monitor-acer-r241ybwmix-23-8-full-hd-ips-1-ms-vga-hdmi-1x-hdmi-in-blanco-1475800.html",
    "https://www.mediamarkt.es/es/product/_monitor-lg-32mn500m-b-31-5-full-hd-5-ms-75-hz-2-x-hdmi-radeon-freesync-negro-1477814.html",
    "https://www.mediamarkt.es/es/product/_monitor-philips-273v7qdsb-00-27-full-hd-ips-5-ms-flicker-free-low-blue-mode-hdmi-negro-1466206.html",
    "https://www.mediamarkt.es/es/product/_monitor-gaming-hp-omen-25-24-5-full-hd-144hz-led-hdmi-usb-negro-jack-black-1378011.html",
    "https://www.mediamarkt.es/es/product/_monitor-gaming-lenovo-d27-20-27-full-hd-4-ms-75-hz-1xhdmi-1xvga-1xaudio-freesync-negro-1481476.html",
    "https://www.mediamarkt.es/es/product/_monitor-samsung-s24r350fhu-23-8-led-full-hd-1920x1080-freesync-250-cd-m%C2%B2-5-ms-178%C2%BA-hdmi-plata-1473718.html",
    "https://www.mediamarkt.es/es/product/_monitor-lenovo-l22e-21-5-full-hd-6-ms-hdmi-negro-1446732.html",
    "https://www.mediamarkt.es/es/product/_monitor-hp-22fw-fhd-21-5-1920x1080-5ms-ips-microborde-amd-freesync%E2%84%A2-hdmi-1433939.html",
    "https://www.mediamarkt.es/es/product/_monitor-gaming-aoc-27g2u-bk-27-full-hd-ips-1ms-144-hz-amd-freesync-negro-1470070.html",
    "https://www.mediamarkt.es/es/product/_monitor-gaming-aoc-c24g1-24-full-hd-curvo-1-ms-144-hz-led-flicker-free-freesync-negro-rojo-1469901.html",
    "https://www.mediamarkt.es/es/product/_monitor-philips-276e8vjsb-27-4k-ips-16-9-wled-hdmi-srgb-350-cd-m%C2%B2-antirreflectante-salida-audio-1446212.html",
    "https://www.mediamarkt.es/es/product/_monitor-lg-22mk600m-b-21-5-ips-full-hd-modo-lectura-radeon-freesync-onscreen-control-1441561.html",
    "https://www.mediamarkt.es/es/product/_monitor-acer-ek240yabi-23-8-full-hd-75-hz-hdmi-1-vga-negro-1477913.html",
    "https://www.mediamarkt.es/es/product/_monitor-aoc-24b1h-23-6-full-hd-wled-250-cd-m%C2%B2-5-ms-panel-va-a-negro-1442302.html",
    "https://www.mediamarkt.es/es/product/_monitor-gaming-lg-25um58-p-25-2560x1080-5ms-ips-21-9-negro-1321019.html",
    "https://www.mediamarkt.es/es/product/_monitor-gaming-samsung-ls27e332hzo-27-full-hd-1-ms-75-hz-hdmi-negro-1473819.html",
    "https://www.mediamarkt.es/es/product/_monitor-gaming-asus-vg278qf-27-full-hd-tn-led-0-5-ms-165-hz-freesync-adaptive-sync-hdmi-negro-1479335.html",
    "https://www.mediamarkt.es/es/product/_monitor-philips-243v5lhsb-23-6-full-hd-1920-x-1080-hdmi-vga-dvi-negro-1304627.html",
    "https://www.mediamarkt.es/es/product/_monitor-acer-ek220qabi-21-5-full-hd-5-ms-75-hz-negro-1477911.html",
    "https://www.mediamarkt.es/es/product/_monitor-samsung-s24f352h-23-5-full-hd-pls-negro-1326443.html",
    "https://www.mediamarkt.es/es/product/_monitor-aoc-22b1h-21-5-full-hd-5-ms-hdmi-negro-1470059.html",
    "https://www.mediamarkt.es/es/product/_monitor-gaming-lg-27mp59g-27-full-hd-ips-negro-1365241.html",
    "https://www.mediamarkt.es/es/product/_monitor-philips-243v7qdsb-24-24-led-ips-4-ms-borde-estrecho-hdmi-dvi-vga-16-9-negro-1429776.html",
    "https://www.mediamarkt.es/es/product/_monitor-philips-e-line-248e9qhsb-24-full-hd-curvo-hdmi-vga-lcd-negro-1467206.html",
    "https://www.mediamarkt.es/es/product/_monitor-gaming-lg-ultragear-27gn750-b-27-full-hd-1-ms-240-hz-freesync-displayport-hdmi-usb-negro-1481721.html",
    "https://www.mediamarkt.es/es/product/_monitor-gaming-acer-ed320qrpbiipx-32-fullhd-curvo-5-ms-165-hz-led-sin-parpadeo-negro-1475806.html",
    "https://www.mediamarkt.es/es/product/_monitor-aoc-e2270swn-21-5-full-hd-led-1920-x-1080-negro-1249080.html",
    "https://www.mediamarkt.es/es/product/_monitor-philips-223v5lsb2-10-full-hd-1231052.html",
    "https://www.mediamarkt.es/es/product/_monitor-gaming-aoc-c32g1-31-5-curvo-1-ms-full-hd-144-hz-hdmi-display-port-freesync-negro-1470065.html",
    "https://www.mediamarkt.es/es/product/_monitor-gaming-msi-optix-mag274r-27-full-hd-1-ms-144-hz-freesync-premium-usb-hdmi-negro-1481885.html",
    "https://www.mediamarkt.es/es/product/_monitor-gaming-asus-vg279q-27-led-ips-full-hd-1-ms-144-hz-freesync-negro-1471693.html",
    "https://www.mediamarkt.es/es/product/_monitor-acer-r0-r270-27-led-ips-full-hd-freesync-1-ms-75-hz-hdmi-vga-plata-1475802.html",
    "https://www.mediamarkt.es/es/product/_monitor-gaming-asus-vp228he-21-5-fhd-1ms-gameplus-antiparpadeo-hdmi-d-sub-negro-1364281.html",
    "https://www.mediamarkt.es/es/product/_monitor-gaming-hp-24x-23-8-full-hd-1-ms-144-hz-negro-1467147.html",
    "https://www.mediamarkt.es/es/product/_monitor-led-aoc-value-e970swn-hd-panor%C3%A1mico-y-5ms-1229345.html",
    "https://www.mediamarkt.es/es/product/_monitor-gaming-aoc-c27g1-curvo-full-hd-va-negro-1466431.html",
    "https://www.mediamarkt.es/es/product/_monitor-hp-20kd-19-5-pulgadas-1440-x-900-a-60hz-led-vga-dvi-1332126.html",
    "https://www.mediamarkt.es/es/product/_monitor-philips-322e1c-00-32-full-hd-curvo-hdmi-vga-displayport-negro-1467208.html",
    "https://www.mediamarkt.es/es/product/_monitor-lenovo-g24-10-59-94-cm-23-6-1920-x-1080-fhd-hdmi-displayport-1-ms-g-sync-compatible-negro-1473980.html",
    "https://www.mediamarkt.es/es/product/_monitor-asus-vs197de-18-5-hd-d-sub-negro-1188567.html",
    "https://www.mediamarkt.es/es/product/_monitor-gaming-aoc-g2590fx-24-5-144hz-full-hd-1920x1080-1ms-400-cd-m%C2%B2-freesync-rojo-1470064.html",
    "https://www.mediamarkt.es/es/product/_monitor-gaming-samsung-c27rg50fqu-serie-crg50-27-full-hd-4-ms-hdmi-1461699.html",
    "https://www.mediamarkt.es/es/product/_monitor-aoc-22v2q-full-hd-21-5-plana-negro-1446087.html",
    "https://www.mediamarkt.es/es/product/_monitor-acer-r240y-23-8-full-hd-led-ips-freesync-1-ms-75-hz-vga-hdmi-plata-1475801.html",
    "https://www.mediamarkt.es/es/product/_monitor-lg-27mk600m-w-27-full-hd-ips-led-5-ms-radeon-freesync%E2%84%A2-negro-y-plata-1467282.html",
    "https://www.mediamarkt.es/es/product/_monitor-aoc-q3279vwf-31-5-qhd-2560x1440-lcd-mva-5ms-dvi-hdmi-negro-y-plata-1391777.html",
    "https://www.mediamarkt.es/es/product/_monitor-gaming-asus-vp278qg-27-full-hd-1ms-75-hz-negro-1394407.html",
    "https://www.mediamarkt.es/es/product/_monitor-aoc-m2470swh-23-6-full-hd-1920x1080-250-cd-m%C2%B2-display-wled-mva-negro-1359177.html",
    "https://www.mediamarkt.es/es/product/_monitor-aoc-22b1hs-21-5-full-hd-ips-5-ms-flicker-free-low-blue-light-hdmi-negro-1470060.html",
    "https://www.mediamarkt.es/es/product/_monitor-gaming-benq-ex2780q-27-qhd-ips-5ms-144-hz-freesync-negro-1473530.html",
    "https://www.mediamarkt.es/es/product/_monitor-gaming-acer-nitro-qg271bii-27-full-hd-1-ms-75-hz-negro-1475809.html",
    "https://www.mediamarkt.es/es/product/_monitor-gaming-zowie-xl2546-24-5-full-hd-1920x1080-1-ms-240-hz-tn-led-1373130.html",
    "https://www.mediamarkt.es/es/product/_monitor-lg-34wn650-34-wqhd-2560x1080-5ms-75hz-freesync-ips-displayport-2x-hdmi-altavoces-blanco-1477809.html",
    "https://www.mediamarkt.es/es/product/_monitor-aoc-q3279vwfd8-31-5-fullhd-2560x1440-250-cd-m%C2%B2-wled-hdmi-dp-negro-1439488.html",
    "https://www.mediamarkt.es/es/product/_monitor-lenovo-q24i-23-8-ips-fullhd-amd-freesync-4-ms-hdmi-negro-y-plata-1468989.html",
    "https://www.mediamarkt.es/es/product/_monitor-lg-27gl850-b-led-27-usb-2560-x-1440-pixeles-wqhd-plana-negro-rojo-1468202.html",
    "https://www.mediamarkt.es/es/product/_monitor-gaming-acer-kg241qs-23-6-tn-led-full-hd-1-ms-165-hz-freesync-hdmi-negro-1475807.html",
    "https://www.mediamarkt.es/es/product/_monitor-philips-223v7qhab-00-21-5-ips-lcd-fhd-5-ms-vga-negro-1467196.html",
    "https://www.mediamarkt.es/es/product/_monitor-gaming-lenovo-g27c-10-7-va-full-hd-1920x1080-6-ms-curvo-165-hz-freesync-hdmi-displayport-1473984.html",
    "https://www.mediamarkt.es/es/product/_monitor-port%C3%A1til-asus-mb169b-15-6-full-hd-ips-ultrafino-giro-autom%C3%A1tico-negro-y-plata-1341044.html",
    "https://www.mediamarkt.es/es/product/_monitor-lg-24mk600m-23-8-fhd-led-ips-5ms-hdmi-vga-dvi-1446213.html",
    "https://www.mediamarkt.es/es/product/_monitor-gaming-asus-vg258qr-24-5-led-tn-ful-lhd-0-5-ms-165hz-freesync-negro-1471691.html",
    "https://www.mediamarkt.es/es/product/_monitor-aoc-i2790pqu-bt-27-fhd-ips-4ms-flicker-free-altavoces-integrados-hdmi-usb-plata-1403951.html",
    "https://www.mediamarkt.es/es/product/_monitor-gaming-asus-vg248qe-gaming-24-tn-fhd-144-hz-1ms-350-nits-displayport-1187193.html",
    "https://www.mediamarkt.es/es/product/_monitor-profesional-asus-pb247q-23-8-ips-fullhd-5ms-quickfit-virtual-scale-eye-care-gris-1434102.html",
    "https://www.mediamarkt.es/es/product/_monitor-benq-bl2483-24-full-hd-1920-x-1080-ips-1-ms-led-16-9-tn-hdmi-negro-1473524.html",
    "https://www.mediamarkt.es/es/product/_monitor-gaming-asus-rog-strix-xg258q-24-5-full-hd-240hz-1ms-negro-1383443.html",
    "https://www.mediamarkt.es/es/product/_monitor-lg-34wk95u-w-34-4k-uhd-600-cd-m%C2%B2-10-w-1434078.html",
    "https://www.mediamarkt.es/es/product/_monitor-lenovo-g25-10-62-2-cm-24-5-1920-x-1080-pixeles-full-hd-led-plana-negro-1473981.html",
    "https://www.mediamarkt.es/es/product/_monitor-gaming-asus-va326h-31-5-full-hd-va-curvo-4-ms-144hz-antiparpadeo-negro-1373094.html",
    "https://www.mediamarkt.es/es/product/_monitor-asus-vp247na-23-6-full-hd-va-5-ms-dvi-vga-eye-care-negro-1465435.html",
    "https://www.mediamarkt.es/es/product/_monitor-aoc-27v2q-27-full-hd-led-ips-freesync-negro-1471144.html",
    "https://www.mediamarkt.es/es/product/_monitor-lg-27gl650f-b-led-27-1920-x-1080-pixeles-full-hd-plana-mate-negro-1468201.html",
    "https://www.mediamarkt.es/es/product/_monitor-lg-24md4kl-b-24-uhd-4k-14-ms-60-hz-3-usb-c2-thunderbolt-3-negro-1474128.html",
    "https://www.mediamarkt.es/es/product/_monitor-acer-r271bwmix-23-8-full-hd-led-ips-freesync-1-ms-75-hz-vga-hdmi-blanco-1475803.html",
    "https://www.mediamarkt.es/es/product/_monitor-gaming-lg-32gk650f-b-31-5-led-freesync-16-9-hdmi-negro-1465564.html",
    "https://www.mediamarkt.es/es/product/_monitor-msi-optix-mpg27cq2-27-led-wide-quadhd-144hz-curvo-1475189.html",
    "https://www.mediamarkt.es/es/product/_monitor-gaming-aoc-agon-ag241qg-23-8-pulgadas-wide-quad-hd-1ms-1346769.html",
    "https://www.mediamarkt.es/es/product/_monitor-gaming-aoc-g2590vxq-24-5-full-hd-tn-negro-y-rojo-1401882.html",
    "https://www.mediamarkt.es/es/product/_monitor-lg-49wl95c-49-ips-5120-x-1440-pixeles-ultrawide-quad-hd-350cd-m%C2%B2-60hz-5-ms-blanco-1454423.html",
    "https://www.mediamarkt.es/es/product/_monitor-asus-pa279q-27-wqhd-ah-ips-hdmi-49w-1073-7m-colores-1271228.html",
    "https://www.mediamarkt.es/es/product/_monitor-benq-bl2483t-24-full-hd-tn-5-ms-16-9-freesync%E2%84%A2-hdmi-dvi-d-led-negro-1473529.html",
    "https://www.mediamarkt.es/es/product/_monitor-lg-34wl85c-b-34-qhd-5ms-60-hz-curvo-dp-maxxaudio-surround-das-negro-1481720.html",
    "https://www.mediamarkt.es/es/product/_monitor-gaming-lg-27gk750f-27-pulgadas-full-hd-2-ms-motion-blur-reduction-freesync-negro-1393852.html",
    "https://www.mediamarkt.es/es/product/_monitor-gaming-asus-vg27vq-28-fullhd-curvo-1-ms-elmb-165-hz-dvi-hdmi-displayport-freesync-negro-1479334.html",
    "https://www.mediamarkt.es/es/product/_monitor-profesional-asus-proart-pa27ac-27-ips-wqhd-400-nits-5-ms-hdr-10-100-srgb-%CE%B4e-lt-2-1394420.html",
    "https://www.mediamarkt.es/es/product/_reacondicionado-monitor-acer-bx320hk-32-ips-4k-ultra-hd-gris-oscuro-1439683.html",
    "https://www.mediamarkt.es/es/product/_monitor-gaming-msi-optix-g27cq4-27-wqhd-1-ms-50-60-hz-displayport-hdmi-curvo-freesync-flicker-free-1482420.html",
    "https://www.mediamarkt.es/es/product/_monitor-gaming-asus-rog-strix-xg27vq-27-full-hd-curvo-4ms-144hz-freesync-negro-y-rojo-1383579.html",
    "https://www.mediamarkt.es/es/product/_monitor-gaming-aoc-ag273qx-27-qhd-2k-4-ms-freesync-2-flickerfree-lowblue-mode-hdmi-negro-1471155.html",
    "https://www.mediamarkt.es/es/product/_reacondicionado-monitor-benq-pv3200pt-32-4k-ips-5ms-hdmi-displayport-rec-709-negro-1470123.html",
    "https://www.mediamarkt.es/es/product/_monitor-gaming-asus-cg32uq-31-5-uhd-4k-5-ms-4-x-usb-3-0-2-x-usb-tipo-a-3-x-hdmi-v2-0-negro-1479330.html",
    "https://www.mediamarkt.es/es/product/_monitor-gaming-asus-vp279qgl-27-full-hd-5-ms-75-hz-freesync%E2%84%A2-negro-1473545.html",
    "https://www.mediamarkt.es/es/product/_monitor-gaming-lg-38gl950g-b-38-uhd-4k-1-ms-175-hz-curvo-ultrawide-nvidia-g-sync-hdr-fps-game-1481722.html",
    "https://www.mediamarkt.es/es/product/_monitor-24-asus-pa24ac-90lm04b0-b01370-1434098.html",
    "https://www.mediamarkt.es/es/product/_monitor-gaming-lenovo-legion-y27gq-25-27-wqhd-0-5-ms-240-hz-hdmi-displayport-usb-negro-1468980.html",
    "https://www.mediamarkt.es/es/product/_monitor-gaming-benq-zowie-xl2740-27-1920x1080-1ms-240hz-negro-1404994.html",
    "https://www.mediamarkt.es/es/product/_monitor-gaming-lg-34um69g-b-34-ultra-hd-ips-conector-usb-tipo-c-1365244.html",
    "https://www.mediamarkt.es/es/product/_monitor-curvo-benq-ex3203r-gaming-31-5-qhd-2k-144-hz-hdr-hdmi-usb-c-negro-y-gris-1435228.html",
    "https://www.mediamarkt.es/es/product/_vg278qr-1454223.html",
    "https://www.mediamarkt.es/es/product/_monitor-gaming-asus-rog-strix-xg49vq-49-ultrapanor%C3%A1mico-144hz-400-nits-freesync%E2%84%A2-2-hdr-1453765.html",
    "https://www.mediamarkt.es/es/product/_monitor-acer-ed323qurwidpx-31-5-tft-qhd-led-curvo-4-ms-blanco-1469488.html",
    "https://www.mediamarkt.es/es/product/_monitor-lg-43un700-b-108-cm-42-5-uhd-4k-8-ms-60-hz-negro-1477812.html",
    "https://www.mediamarkt.es/es/product/_monitor-lenovo-l27m-28-27-full-hd-4-ms-75-hz-1xhdmi-1xvga-1xusb-c-freesync-negro-1469001.html",
    "https://www.mediamarkt.es/es/product/_monitor-gaming-lenovo-legion-y44w-10-43-4-dwuxga-curva-4-ms-144-hz-2-hdmi-usb-freesync-2-negro-1468981.html",
    "https://www.mediamarkt.es/es/product/_monitor-benq-bl702a-17-pulgadas-hd-1313143.html",
    "https://www.mediamarkt.es/es/product/_monitor-gaming-acer-predator-z-series-z35-35-ultrawide-quad-hd-led-4-ms-hdmi-negro-1372759.html",
    "https://www.mediamarkt.es/es/product/_aoc-monitor-de-27-aoci2790vq-bt-full-hd-ips-1401884.html",
    "https://www.mediamarkt.es/es/product/_monitor-port%C3%A1til-asus-zenscreen-mb16ahp-15-6-full-hd-ips-bater%C3%ADa-integrada-usb-c-micro-hdmi-negro-1465436.html",
    "https://www.mediamarkt.es/es/product/_monitor-gaming-asus-tuf-gaming-vg35vq-35-curvo-led-ultrawide-quadhd-1ms-100hz-hdmi-negro-1473547.html",
    "https://www.mediamarkt.es/es/product/_monitor-business-asus-be24aqlbh-24-1-hdmi-wled-ips-antiparpadeo-control-luz-azul-negro-1394424.html",
    "https://www.mediamarkt.es/es/product/_monitor-lg-ultrawide-38wn75c-38-qhd-5-ms-75-hz-dpx1-hdmix2-auriculares-negro-1477811.html",
    "https://www.mediamarkt.es/es/product/_monitor-lg-27uk670-b-27-27-ips-68-6-cm-negro-1465566.html",
    "https://www.mediamarkt.es/es/product/_monitor-gaming-msi-optix-g271-27-fullhd-1-ms-144-hz-anti-flicker-amd-freesync-negro-1482419.html",
    "https://www.mediamarkt.es/es/product/_monitor-lg-27ul850-w-pc-68-6-cm-27-4k-ultra-hd-led-blanco-1465570.html",
    "https://www.mediamarkt.es/es/product/_monitor-gaming-asus-vg27bq-27-wqhd-panel-tn-0-4-ms-165-hz-hdmi-negro-1471694.html",
    "https://www.mediamarkt.es/es/product/_monitor-aoc-24v2q-24-full-hd-led-ips-freesync-negro-1471143.html",
    "https://www.mediamarkt.es/es/product/_monitor-de-27-aoc-g2790px-full-hd-tn-led-1399546.html",
    "https://www.mediamarkt.es/es/product/_monitor-gaming-aoc-style-line-q27t1-27-2560-x-1440-hd-led-plana-plata-1471147.html",
    "https://www.mediamarkt.es/es/product/_monitor-gaming-lenovo-legion-y27gq-20-27-qhd-1-ms-165-hz-1-hdmi-negro-1468979.html",
    "https://www.mediamarkt.es/es/product/_monitor-gaming-lg-32qk500-c-31-5-qhd-8-ms-75-hz-hdmi-flickersafe-negro-1475907.html",
    "https://www.mediamarkt.es/es/product/_monitor-gaming-acer-predator-xb271hu-27-ips-2k-4ms-144hz-negro-y-rojo-1318074.html",
    "https://www.mediamarkt.es/es/product/_monitor-asus-pb278qv-27-wqhd-ips-5-ms-16-9-led-178%C2%BA-hdmi-displayport-250-cd-m2-negro-1473546.html",
    "https://www.mediamarkt.es/es/product/_monitor-gaming-asus-pg279qe-27-wqhd-ips-4-ms-16-9-hdmi-g-sync-displayport-flicker-free-negro-1473543.html",
    "https://www.mediamarkt.es/es/product/_monitor-gaming-lenovo-y27f-27-curvo-full-hd-1348142.html",
    "https://www.mediamarkt.es/es/product/_monitor-aoc-ag322qc4-31-5-curvo-4ms-qhd-hdmi-displayport-inclinable-300-cd-m%C2%B2-freesync2-negro-1471152.html",
    "https://www.mediamarkt.es/es/product/_monitor-gaming-aoc-ag352qcx-35-fullhd-curvo-4-ms-hdmi-displayport-dvi-usb-300-cd-m%C2%B2-freesync-1471153.html",
    "https://www.mediamarkt.es/es/product/_monitor-aoc-ag352ucg6-35-curvo-4ms-qhd-hdmi-displayport-inclinable-300-cd-m%C2%B2-nvidia-g-sync-negro-1471154.html",
    "https://www.mediamarkt.es/es/product/_monitor-curvo-msi-optix-mag321curv-31-5-uhd-negro-1461562.html",
    "https://www.mediamarkt.es/es/product/_monitor-lg-27md5kl-b-27-5120x2880-p%C3%ADxeles-3-usb-c1-thunderbolt-31-salida-de-audio-negro-1471168.html",
    "https://www.mediamarkt.es/es/product/_monitor-gaming-aoc-24g2u5-bk-24-full-hd-ips-1ms-amd-freesync-negro-1470067.html",
    "https://www.mediamarkt.es/es/product/_reacondicionado-dell-alienware-aw3418hw-34-13-curvo-ultra-wide-quad-hd-ips-mate-negro-plata-1432283.html",
    "https://www.mediamarkt.es/es/product/_monitor-ultrasharp-u2412m-led-display-61-cm-24-full-hd-plana-mate-negro-1400229.html",
    "https://www.mediamarkt.es/es/product/_monitor-lenovo-c32q-20-32-qhd-2560-x-1440-px-4-ms-75-hz-negro-1468999.html",
    "https://www.mediamarkt.es/es/product/_monitor-acer-predator-z271t-full-hd-curvo-negro-led-eyetracking-1372754.html",
    "https://www.mediamarkt.es/es/product/_monitor-asus-mx32vq-curvo-32-wqhd-4-ms-sonido-harman-kardon-gris-espacio-y-negro-1394398.html",
    "https://www.mediamarkt.es/es/product/_monitor-asus-vp229hal-21-5-ips-fullhd-5ms-eye-care-antiparpadeo-negro-1394431.html",
    "https://www.mediamarkt.es/es/product/_monitor-gaming-acer-predator-xb271hu-27-tn-film-2k-1ms-144hz-negro-y-rojo-1335341.html",
    "https://www.mediamarkt.es/es/product/_monitor-gaming-aoc-ag273qcx-27-qhd-2k-4-ms-freesync-flickerfree-lowblue-mode-hdmi-negro-1471156.html",
    "https://www.mediamarkt.es/es/product/_monitor-aoc-e2270swhn-full-hd-21-5-pulgadas-1316799.html",
    "https://www.mediamarkt.es/es/product/_monitor-gaming-acer-predator-x35-35-curva-va-qhd-4-ms-200-hz-g-sync-ultimate-negro-1479104.html",
    "https://www.mediamarkt.es/es/product/_monitor-gaming-benq-ew2780q-27-led-ips-quadhd-hdri-16-9-eye-care-hdmi-negro-1473531.html",
    "https://www.mediamarkt.es/es/product/_monitor-gaming-aoc-ag273qcg-27-curvo-1-ms-qhd-hdmi-displayport-400cd-m%C2%B2-165-hz-nvidia-g-sync-rojo-1471157.html",
    "https://www.mediamarkt.es/es/product/_monitor-dell-ultrasharp-up3017-30-ips-w-led-hdmi-2560-x-1600-p%C3%ADxeles-negro-1436015.html",
    "https://www.mediamarkt.es/es/product/_pantalla-de-69-5-dell-c7017t-led-full-hd-1391812.html"
]